(kicad_pcb (version 20171130) (host pcbnew "(5.1.5)-3")

  (general
    (thickness 1.6)
    (drawings 54)
    (tracks 100)
    (zones 0)
    (modules 19)
    (nets 49)
  )

  (page A4)
  (layers
    (0 F.Cu signal)
    (1 In1.Cu signal)
    (2 In2.Cu signal hide)
    (31 B.Cu signal)
    (32 B.Adhes user)
    (33 F.Adhes user)
    (34 B.Paste user)
    (35 F.Paste user)
    (36 B.SilkS user hide)
    (37 F.SilkS user)
    (38 B.Mask user)
    (39 F.Mask user)
    (40 Dwgs.User user)
    (41 Cmts.User user)
    (42 Eco1.User user hide)
    (43 Eco2.User user hide)
    (44 Edge.Cuts user)
    (45 Margin user hide)
    (46 B.CrtYd user hide)
    (47 F.CrtYd user hide)
    (48 B.Fab user)
    (49 F.Fab user)
  )

  (setup
    (last_trace_width 0.6)
    (user_trace_width 0.15)
    (user_trace_width 0.2)
    (user_trace_width 0.25)
    (user_trace_width 0.4)
    (user_trace_width 0.5)
    (user_trace_width 0.6)
    (user_trace_width 1)
    (user_trace_width 2)
    (trace_clearance 0.2)
    (zone_clearance 0.2)
    (zone_45_only yes)
    (trace_min 0.15)
    (via_size 0.4)
    (via_drill 0.2)
    (via_min_size 0.4)
    (via_min_drill 0.2)
    (uvia_size 0.3)
    (uvia_drill 0.1)
    (uvias_allowed no)
    (uvia_min_size 0.2)
    (uvia_min_drill 0.1)
    (edge_width 0.15)
    (segment_width 0.15)
    (pcb_text_width 0.3)
    (pcb_text_size 1.5 1.5)
    (mod_edge_width 0.15)
    (mod_text_size 0.6 0.6)
    (mod_text_width 0.09)
    (pad_size 1.524 1.524)
    (pad_drill 0.762)
    (pad_to_mask_clearance 0.1)
    (aux_axis_origin 0 0)
    (visible_elements 7FFFFE3F)
    (pcbplotparams
      (layerselection 0x010f8_80000007)
      (usegerberextensions false)
      (usegerberattributes false)
      (usegerberadvancedattributes false)
      (creategerberjobfile false)
      (excludeedgelayer false)
      (linewidth 0.100000)
      (plotframeref false)
      (viasonmask false)
      (mode 1)
      (useauxorigin false)
      (hpglpennumber 1)
      (hpglpenspeed 20)
      (hpglpendiameter 15.000000)
      (psnegative false)
      (psa4output false)
      (plotreference true)
      (plotvalue false)
      (plotinvisibletext false)
      (padsonsilk true)
      (subtractmaskfromsilk false)
      (outputformat 1)
      (mirror false)
      (drillshape 0)
      (scaleselection 1)
      (outputdirectory "prod"))
  )

  (net 0 "")
  (net 1 GND)
  (net 2 /ID_SD_EEPROM)
  (net 3 /ID_SC_EEPROM)
  (net 4 "Net-(Q1-Pad1)")
  (net 5 "Net-(Q2-Pad1)")
  (net 6 /P3V3_HAT)
  (net 7 /P5V_HAT)
  (net 8 /P3V3)
  (net 9 /P5V)
  (net 10 "Net-(C2-Pad2)")
  (net 11 "Net-(C2-Pad1)")
  (net 12 "Net-(C3-Pad1)")
  (net 13 "Net-(C4-Pad2)")
  (net 14 "Net-(C4-Pad1)")
  (net 15 "Net-(C5-Pad2)")
  (net 16 "Net-(J3-Pad3)")
  (net 17 "Net-(J3-Pad5)")
  (net 18 "Net-(J3-Pad7)")
  (net 19 /UART_TX)
  (net 20 /UART_RX)
  (net 21 "Net-(J3-Pad11)")
  (net 22 "Net-(J3-Pad12)")
  (net 23 "Net-(J3-Pad13)")
  (net 24 "Net-(J3-Pad15)")
  (net 25 "Net-(J3-Pad16)")
  (net 26 "Net-(J3-Pad17)")
  (net 27 "Net-(J3-Pad18)")
  (net 28 "Net-(J3-Pad19)")
  (net 29 "Net-(J3-Pad21)")
  (net 30 "Net-(J3-Pad22)")
  (net 31 "Net-(J3-Pad23)")
  (net 32 "Net-(J3-Pad24)")
  (net 33 "Net-(J3-Pad26)")
  (net 34 "Net-(J3-Pad29)")
  (net 35 "Net-(J3-Pad31)")
  (net 36 "Net-(J3-Pad32)")
  (net 37 "Net-(J3-Pad33)")
  (net 38 "Net-(J3-Pad35)")
  (net 39 "Net-(J3-Pad36)")
  (net 40 "Net-(J3-Pad37)")
  (net 41 "Net-(J3-Pad38)")
  (net 42 "Net-(J3-Pad40)")
  (net 43 /SERIAL_TX)
  (net 44 "Net-(U1-Pad14)")
  (net 45 "Net-(U1-Pad13)")
  (net 46 "Net-(U1-Pad12)")
  (net 47 "Net-(U1-Pad11)")
  (net 48 /SERIAL_RX)

  (net_class Default "This is the default net class."
    (clearance 0.2)
    (trace_width 0.15)
    (via_dia 0.4)
    (via_drill 0.2)
    (uvia_dia 0.3)
    (uvia_drill 0.1)
    (add_net /ID_SC_EEPROM)
    (add_net /ID_SD_EEPROM)
    (add_net /P3V3)
    (add_net /P3V3_HAT)
    (add_net /P5V)
    (add_net /P5V_HAT)
    (add_net /SERIAL_RX)
    (add_net /SERIAL_TX)
    (add_net /UART_RX)
    (add_net /UART_TX)
    (add_net GND)
    (add_net "Net-(C2-Pad1)")
    (add_net "Net-(C2-Pad2)")
    (add_net "Net-(C3-Pad1)")
    (add_net "Net-(C4-Pad1)")
    (add_net "Net-(C4-Pad2)")
    (add_net "Net-(C5-Pad2)")
    (add_net "Net-(J3-Pad11)")
    (add_net "Net-(J3-Pad12)")
    (add_net "Net-(J3-Pad13)")
    (add_net "Net-(J3-Pad15)")
    (add_net "Net-(J3-Pad16)")
    (add_net "Net-(J3-Pad17)")
    (add_net "Net-(J3-Pad18)")
    (add_net "Net-(J3-Pad19)")
    (add_net "Net-(J3-Pad21)")
    (add_net "Net-(J3-Pad22)")
    (add_net "Net-(J3-Pad23)")
    (add_net "Net-(J3-Pad24)")
    (add_net "Net-(J3-Pad26)")
    (add_net "Net-(J3-Pad29)")
    (add_net "Net-(J3-Pad3)")
    (add_net "Net-(J3-Pad31)")
    (add_net "Net-(J3-Pad32)")
    (add_net "Net-(J3-Pad33)")
    (add_net "Net-(J3-Pad35)")
    (add_net "Net-(J3-Pad36)")
    (add_net "Net-(J3-Pad37)")
    (add_net "Net-(J3-Pad38)")
    (add_net "Net-(J3-Pad40)")
    (add_net "Net-(J3-Pad5)")
    (add_net "Net-(J3-Pad7)")
    (add_net "Net-(Q1-Pad1)")
    (add_net "Net-(Q2-Pad1)")
    (add_net "Net-(U1-Pad11)")
    (add_net "Net-(U1-Pad12)")
    (add_net "Net-(U1-Pad13)")
    (add_net "Net-(U1-Pad14)")
  )

  (module Connector_PinHeader_2.54mm:PinHeader_1x03_P2.54mm_Horizontal (layer F.Cu) (tedit 59FED5CB) (tstamp 614D532D)
    (at 138.43 76.2)
    (descr "Through hole angled pin header, 1x03, 2.54mm pitch, 6mm pin length, single row")
    (tags "Through hole angled pin header THT 1x03 2.54mm single row")
    (path /61522EFB)
    (fp_text reference J1 (at 2.5 -3.4) (layer F.SilkS)
      (effects (font (size 1 1) (thickness 0.15)))
    )
    (fp_text value Conn_01x03_Male (at 2.55 4.5) (layer F.Fab)
      (effects (font (size 1 1) (thickness 0.15)))
    )
    (fp_text user %R (at 2.45 1.8) (layer F.Fab)
      (effects (font (size 1 1) (thickness 0.15)))
    )
    (fp_line (start 10.55 -1.8) (end -1.8 -1.8) (layer F.CrtYd) (width 0.05))
    (fp_line (start 10.55 6.85) (end 10.55 -1.8) (layer F.CrtYd) (width 0.05))
    (fp_line (start -1.8 6.85) (end 10.55 6.85) (layer F.CrtYd) (width 0.05))
    (fp_line (start -1.8 -1.8) (end -1.8 6.85) (layer F.CrtYd) (width 0.05))
    (fp_line (start -1.27 -1.27) (end 0 -1.27) (layer F.SilkS) (width 0.12))
    (fp_line (start -1.27 0) (end -1.27 -1.27) (layer F.SilkS) (width 0.12))
    (fp_line (start 1.042929 5.46) (end 1.44 5.46) (layer F.SilkS) (width 0.12))
    (fp_line (start 1.042929 4.7) (end 1.44 4.7) (layer F.SilkS) (width 0.12))
    (fp_line (start 10.1 5.46) (end 4.1 5.46) (layer F.SilkS) (width 0.12))
    (fp_line (start 10.1 4.7) (end 10.1 5.46) (layer F.SilkS) (width 0.12))
    (fp_line (start 4.1 4.7) (end 10.1 4.7) (layer F.SilkS) (width 0.12))
    (fp_line (start 1.44 3.81) (end 4.1 3.81) (layer F.SilkS) (width 0.12))
    (fp_line (start 1.042929 2.92) (end 1.44 2.92) (layer F.SilkS) (width 0.12))
    (fp_line (start 1.042929 2.16) (end 1.44 2.16) (layer F.SilkS) (width 0.12))
    (fp_line (start 10.1 2.92) (end 4.1 2.92) (layer F.SilkS) (width 0.12))
    (fp_line (start 10.1 2.16) (end 10.1 2.92) (layer F.SilkS) (width 0.12))
    (fp_line (start 4.1 2.16) (end 10.1 2.16) (layer F.SilkS) (width 0.12))
    (fp_line (start 1.44 1.27) (end 4.1 1.27) (layer F.SilkS) (width 0.12))
    (fp_line (start 1.11 0.38) (end 1.44 0.38) (layer F.SilkS) (width 0.12))
    (fp_line (start 1.11 -0.38) (end 1.44 -0.38) (layer F.SilkS) (width 0.12))
    (fp_line (start 4.1 0.28) (end 10.1 0.28) (layer F.SilkS) (width 0.12))
    (fp_line (start 4.1 0.16) (end 10.1 0.16) (layer F.SilkS) (width 0.12))
    (fp_line (start 4.1 0.04) (end 10.1 0.04) (layer F.SilkS) (width 0.12))
    (fp_line (start 4.1 -0.08) (end 10.1 -0.08) (layer F.SilkS) (width 0.12))
    (fp_line (start 4.1 -0.2) (end 10.1 -0.2) (layer F.SilkS) (width 0.12))
    (fp_line (start 4.1 -0.32) (end 10.1 -0.32) (layer F.SilkS) (width 0.12))
    (fp_line (start 10.1 0.38) (end 4.1 0.38) (layer F.SilkS) (width 0.12))
    (fp_line (start 10.1 -0.38) (end 10.1 0.38) (layer F.SilkS) (width 0.12))
    (fp_line (start 4.1 -0.38) (end 10.1 -0.38) (layer F.SilkS) (width 0.12))
    (fp_line (start 4.1 -1.33) (end 1.44 -1.33) (layer F.SilkS) (width 0.12))
    (fp_line (start 4.1 6.41) (end 4.1 -1.33) (layer F.SilkS) (width 0.12))
    (fp_line (start 1.44 6.41) (end 4.1 6.41) (layer F.SilkS) (width 0.12))
    (fp_line (start 1.44 -1.33) (end 1.44 6.41) (layer F.SilkS) (width 0.12))
    (fp_line (start 4.04 5.4) (end 10.04 5.4) (layer F.Fab) (width 0.1))
    (fp_line (start 10.04 4.76) (end 10.04 5.4) (layer F.Fab) (width 0.1))
    (fp_line (start 4.04 4.76) (end 10.04 4.76) (layer F.Fab) (width 0.1))
    (fp_line (start -0.32 5.4) (end 1.5 5.4) (layer F.Fab) (width 0.1))
    (fp_line (start -0.32 4.76) (end -0.32 5.4) (layer F.Fab) (width 0.1))
    (fp_line (start -0.32 4.76) (end 1.5 4.76) (layer F.Fab) (width 0.1))
    (fp_line (start 4.04 2.86) (end 10.04 2.86) (layer F.Fab) (width 0.1))
    (fp_line (start 10.04 2.22) (end 10.04 2.86) (layer F.Fab) (width 0.1))
    (fp_line (start 4.04 2.22) (end 10.04 2.22) (layer F.Fab) (width 0.1))
    (fp_line (start -0.32 2.86) (end 1.5 2.86) (layer F.Fab) (width 0.1))
    (fp_line (start -0.32 2.22) (end -0.32 2.86) (layer F.Fab) (width 0.1))
    (fp_line (start -0.32 2.22) (end 1.5 2.22) (layer F.Fab) (width 0.1))
    (fp_line (start 4.04 0.32) (end 10.04 0.32) (layer F.Fab) (width 0.1))
    (fp_line (start 10.04 -0.32) (end 10.04 0.32) (layer F.Fab) (width 0.1))
    (fp_line (start 4.04 -0.32) (end 10.04 -0.32) (layer F.Fab) (width 0.1))
    (fp_line (start -0.32 0.32) (end 1.5 0.32) (layer F.Fab) (width 0.1))
    (fp_line (start -0.32 -0.32) (end -0.32 0.32) (layer F.Fab) (width 0.1))
    (fp_line (start -0.32 -0.32) (end 1.5 -0.32) (layer F.Fab) (width 0.1))
    (fp_line (start 1.5 -0.635) (end 2.135 -1.27) (layer F.Fab) (width 0.1))
    (fp_line (start 1.5 6.35) (end 1.5 -0.635) (layer F.Fab) (width 0.1))
    (fp_line (start 4.04 6.35) (end 1.5 6.35) (layer F.Fab) (width 0.1))
    (fp_line (start 4.04 -1.27) (end 4.04 6.35) (layer F.Fab) (width 0.1))
    (fp_line (start 2.135 -1.27) (end 4.04 -1.27) (layer F.Fab) (width 0.1))
    (pad 3 thru_hole oval (at 0 5.08) (size 1.7 1.7) (drill 1) (layers *.Cu *.Mask)
      (net 48 /SERIAL_RX))
    (pad 2 thru_hole oval (at 0 2.54) (size 1.7 1.7) (drill 1) (layers *.Cu *.Mask)
      (net 43 /SERIAL_TX))
    (pad 1 thru_hole rect (at 0 0) (size 1.7 1.7) (drill 1) (layers *.Cu *.Mask)
      (net 1 GND))
    (model ${KISYS3DMOD}/Connector_PinHeader_2.54mm.3dshapes/PinHeader_1x03_P2.54mm_Horizontal.wrl
      (at (xyz 0 0 0))
      (scale (xyz 1 1 1))
      (rotate (xyz 0 0 0))
    )
  )

  (module Resistor_SMD:R_0805_2012Metric (layer F.Cu) (tedit 5B36C52B) (tstamp 614D7295)
    (at 92.11 73.66 180)
    (descr "Resistor SMD 0805 (2012 Metric), square (rectangular) end terminal, IPC_7351 nominal, (Body size source: https://docs.google.com/spreadsheets/d/1BsfQQcO9C6DZCsRaXUlFlo91Tg2WpOkGARC1WS5S8t0/edit?usp=sharing), generated with kicad-footprint-generator")
    (tags resistor)
    (path /58E158A1)
    (attr smd)
    (fp_text reference R24 (at 0 -1.65) (layer F.SilkS)
      (effects (font (size 1 1) (thickness 0.15)))
    )
    (fp_text value 47K (at 0 1.65) (layer F.Fab)
      (effects (font (size 1 1) (thickness 0.15)))
    )
    (fp_text user %R (at 0 0) (layer F.Fab)
      (effects (font (size 0.5 0.5) (thickness 0.08)))
    )
    (fp_line (start 1.68 0.95) (end -1.68 0.95) (layer F.CrtYd) (width 0.05))
    (fp_line (start 1.68 -0.95) (end 1.68 0.95) (layer F.CrtYd) (width 0.05))
    (fp_line (start -1.68 -0.95) (end 1.68 -0.95) (layer F.CrtYd) (width 0.05))
    (fp_line (start -1.68 0.95) (end -1.68 -0.95) (layer F.CrtYd) (width 0.05))
    (fp_line (start -0.258578 0.71) (end 0.258578 0.71) (layer F.SilkS) (width 0.12))
    (fp_line (start -0.258578 -0.71) (end 0.258578 -0.71) (layer F.SilkS) (width 0.12))
    (fp_line (start 1 0.6) (end -1 0.6) (layer F.Fab) (width 0.1))
    (fp_line (start 1 -0.6) (end 1 0.6) (layer F.Fab) (width 0.1))
    (fp_line (start -1 -0.6) (end 1 -0.6) (layer F.Fab) (width 0.1))
    (fp_line (start -1 0.6) (end -1 -0.6) (layer F.Fab) (width 0.1))
    (pad 2 smd roundrect (at 0.9375 0 180) (size 0.975 1.4) (layers F.Cu F.Paste F.Mask) (roundrect_rratio 0.25)
      (net 1 GND))
    (pad 1 smd roundrect (at -0.9375 0 180) (size 0.975 1.4) (layers F.Cu F.Paste F.Mask) (roundrect_rratio 0.25)
      (net 4 "Net-(Q1-Pad1)"))
    (model ${KISYS3DMOD}/Resistor_SMD.3dshapes/R_0805_2012Metric.wrl
      (at (xyz 0 0 0))
      (scale (xyz 1 1 1))
      (rotate (xyz 0 0 0))
    )
  )

  (module Resistor_SMD:R_0805_2012Metric (layer F.Cu) (tedit 5B36C52B) (tstamp 614D7284)
    (at 92.11 71.12 180)
    (descr "Resistor SMD 0805 (2012 Metric), square (rectangular) end terminal, IPC_7351 nominal, (Body size source: https://docs.google.com/spreadsheets/d/1BsfQQcO9C6DZCsRaXUlFlo91Tg2WpOkGARC1WS5S8t0/edit?usp=sharing), generated with kicad-footprint-generator")
    (tags resistor)
    (path /58E15896)
    (attr smd)
    (fp_text reference R23 (at 0 -1.65) (layer F.SilkS)
      (effects (font (size 1 1) (thickness 0.15)))
    )
    (fp_text value 10K (at 0 1.65) (layer F.Fab)
      (effects (font (size 1 1) (thickness 0.15)))
    )
    (fp_text user %R (at 0 0) (layer F.Fab)
      (effects (font (size 0.5 0.5) (thickness 0.08)))
    )
    (fp_line (start 1.68 0.95) (end -1.68 0.95) (layer F.CrtYd) (width 0.05))
    (fp_line (start 1.68 -0.95) (end 1.68 0.95) (layer F.CrtYd) (width 0.05))
    (fp_line (start -1.68 -0.95) (end 1.68 -0.95) (layer F.CrtYd) (width 0.05))
    (fp_line (start -1.68 0.95) (end -1.68 -0.95) (layer F.CrtYd) (width 0.05))
    (fp_line (start -0.258578 0.71) (end 0.258578 0.71) (layer F.SilkS) (width 0.12))
    (fp_line (start -0.258578 -0.71) (end 0.258578 -0.71) (layer F.SilkS) (width 0.12))
    (fp_line (start 1 0.6) (end -1 0.6) (layer F.Fab) (width 0.1))
    (fp_line (start 1 -0.6) (end 1 0.6) (layer F.Fab) (width 0.1))
    (fp_line (start -1 -0.6) (end 1 -0.6) (layer F.Fab) (width 0.1))
    (fp_line (start -1 0.6) (end -1 -0.6) (layer F.Fab) (width 0.1))
    (pad 2 smd roundrect (at 0.9375 0 180) (size 0.975 1.4) (layers F.Cu F.Paste F.Mask) (roundrect_rratio 0.25)
      (net 1 GND))
    (pad 1 smd roundrect (at -0.9375 0 180) (size 0.975 1.4) (layers F.Cu F.Paste F.Mask) (roundrect_rratio 0.25)
      (net 5 "Net-(Q2-Pad1)"))
    (model ${KISYS3DMOD}/Resistor_SMD.3dshapes/R_0805_2012Metric.wrl
      (at (xyz 0 0 0))
      (scale (xyz 1 1 1))
      (rotate (xyz 0 0 0))
    )
  )

  (module Resistor_SMD:R_0805_2012Metric (layer F.Cu) (tedit 5B36C52B) (tstamp 614D7273)
    (at 85.09 73.66)
    (descr "Resistor SMD 0805 (2012 Metric), square (rectangular) end terminal, IPC_7351 nominal, (Body size source: https://docs.google.com/spreadsheets/d/1BsfQQcO9C6DZCsRaXUlFlo91Tg2WpOkGARC1WS5S8t0/edit?usp=sharing), generated with kicad-footprint-generator")
    (tags resistor)
    (path /58E2218F)
    (attr smd)
    (fp_text reference R9 (at 0 -1.65) (layer F.SilkS)
      (effects (font (size 1 1) (thickness 0.15)))
    )
    (fp_text value DNP (at 0 1.65) (layer F.Fab)
      (effects (font (size 1 1) (thickness 0.15)))
    )
    (fp_text user %R (at 0 0) (layer F.Fab)
      (effects (font (size 0.5 0.5) (thickness 0.08)))
    )
    (fp_line (start 1.68 0.95) (end -1.68 0.95) (layer F.CrtYd) (width 0.05))
    (fp_line (start 1.68 -0.95) (end 1.68 0.95) (layer F.CrtYd) (width 0.05))
    (fp_line (start -1.68 -0.95) (end 1.68 -0.95) (layer F.CrtYd) (width 0.05))
    (fp_line (start -1.68 0.95) (end -1.68 -0.95) (layer F.CrtYd) (width 0.05))
    (fp_line (start -0.258578 0.71) (end 0.258578 0.71) (layer F.SilkS) (width 0.12))
    (fp_line (start -0.258578 -0.71) (end 0.258578 -0.71) (layer F.SilkS) (width 0.12))
    (fp_line (start 1 0.6) (end -1 0.6) (layer F.Fab) (width 0.1))
    (fp_line (start 1 -0.6) (end 1 0.6) (layer F.Fab) (width 0.1))
    (fp_line (start -1 -0.6) (end 1 -0.6) (layer F.Fab) (width 0.1))
    (fp_line (start -1 0.6) (end -1 -0.6) (layer F.Fab) (width 0.1))
    (pad 2 smd roundrect (at 0.9375 0) (size 0.975 1.4) (layers F.Cu F.Paste F.Mask) (roundrect_rratio 0.25)
      (net 9 /P5V))
    (pad 1 smd roundrect (at -0.9375 0) (size 0.975 1.4) (layers F.Cu F.Paste F.Mask) (roundrect_rratio 0.25)
      (net 7 /P5V_HAT))
    (model ${KISYS3DMOD}/Resistor_SMD.3dshapes/R_0805_2012Metric.wrl
      (at (xyz 0 0 0))
      (scale (xyz 1 1 1))
      (rotate (xyz 0 0 0))
    )
  )

  (module Resistor_SMD:R_0805_2012Metric (layer F.Cu) (tedit 5B36C52B) (tstamp 614D7262)
    (at 85.09 83.82)
    (descr "Resistor SMD 0805 (2012 Metric), square (rectangular) end terminal, IPC_7351 nominal, (Body size source: https://docs.google.com/spreadsheets/d/1BsfQQcO9C6DZCsRaXUlFlo91Tg2WpOkGARC1WS5S8t0/edit?usp=sharing), generated with kicad-footprint-generator")
    (tags resistor)
    (path /58E22085)
    (attr smd)
    (fp_text reference R7 (at 0 -1.65) (layer F.SilkS)
      (effects (font (size 1 1) (thickness 0.15)))
    )
    (fp_text value DNP (at 0 1.65) (layer F.Fab)
      (effects (font (size 1 1) (thickness 0.15)))
    )
    (fp_text user %R (at 0 0) (layer F.Fab)
      (effects (font (size 0.5 0.5) (thickness 0.08)))
    )
    (fp_line (start 1.68 0.95) (end -1.68 0.95) (layer F.CrtYd) (width 0.05))
    (fp_line (start 1.68 -0.95) (end 1.68 0.95) (layer F.CrtYd) (width 0.05))
    (fp_line (start -1.68 -0.95) (end 1.68 -0.95) (layer F.CrtYd) (width 0.05))
    (fp_line (start -1.68 0.95) (end -1.68 -0.95) (layer F.CrtYd) (width 0.05))
    (fp_line (start -0.258578 0.71) (end 0.258578 0.71) (layer F.SilkS) (width 0.12))
    (fp_line (start -0.258578 -0.71) (end 0.258578 -0.71) (layer F.SilkS) (width 0.12))
    (fp_line (start 1 0.6) (end -1 0.6) (layer F.Fab) (width 0.1))
    (fp_line (start 1 -0.6) (end 1 0.6) (layer F.Fab) (width 0.1))
    (fp_line (start -1 -0.6) (end 1 -0.6) (layer F.Fab) (width 0.1))
    (fp_line (start -1 0.6) (end -1 -0.6) (layer F.Fab) (width 0.1))
    (pad 2 smd roundrect (at 0.9375 0) (size 0.975 1.4) (layers F.Cu F.Paste F.Mask) (roundrect_rratio 0.25)
      (net 8 /P3V3))
    (pad 1 smd roundrect (at -0.9375 0) (size 0.975 1.4) (layers F.Cu F.Paste F.Mask) (roundrect_rratio 0.25)
      (net 6 /P3V3_HAT))
    (model ${KISYS3DMOD}/Resistor_SMD.3dshapes/R_0805_2012Metric.wrl
      (at (xyz 0 0 0))
      (scale (xyz 1 1 1))
      (rotate (xyz 0 0 0))
    )
  )

  (module Package_TO_SOT_SMD:SOT-23-6 (layer F.Cu) (tedit 5A02FF57) (tstamp 614D69AA)
    (at 96.52 72.39 270)
    (descr "6-pin SOT-23 package")
    (tags SOT-23-6)
    (path /58E1538B)
    (attr smd)
    (fp_text reference Q2 (at 0 -2.9 90) (layer F.SilkS)
      (effects (font (size 1 1) (thickness 0.15)))
    )
    (fp_text value DMMT5401 (at 0 2.9 90) (layer F.Fab)
      (effects (font (size 1 1) (thickness 0.15)))
    )
    (fp_line (start 0.9 -1.55) (end 0.9 1.55) (layer F.Fab) (width 0.1))
    (fp_line (start 0.9 1.55) (end -0.9 1.55) (layer F.Fab) (width 0.1))
    (fp_line (start -0.9 -0.9) (end -0.9 1.55) (layer F.Fab) (width 0.1))
    (fp_line (start 0.9 -1.55) (end -0.25 -1.55) (layer F.Fab) (width 0.1))
    (fp_line (start -0.9 -0.9) (end -0.25 -1.55) (layer F.Fab) (width 0.1))
    (fp_line (start -1.9 -1.8) (end -1.9 1.8) (layer F.CrtYd) (width 0.05))
    (fp_line (start -1.9 1.8) (end 1.9 1.8) (layer F.CrtYd) (width 0.05))
    (fp_line (start 1.9 1.8) (end 1.9 -1.8) (layer F.CrtYd) (width 0.05))
    (fp_line (start 1.9 -1.8) (end -1.9 -1.8) (layer F.CrtYd) (width 0.05))
    (fp_line (start 0.9 -1.61) (end -1.55 -1.61) (layer F.SilkS) (width 0.12))
    (fp_line (start -0.9 1.61) (end 0.9 1.61) (layer F.SilkS) (width 0.12))
    (fp_text user %R (at 0 0) (layer F.Fab)
      (effects (font (size 0.5 0.5) (thickness 0.075)))
    )
    (pad 5 smd rect (at 1.1 0 270) (size 1.06 0.65) (layers F.Cu F.Paste F.Mask)
      (net 7 /P5V_HAT))
    (pad 6 smd rect (at 1.1 -0.95 270) (size 1.06 0.65) (layers F.Cu F.Paste F.Mask)
      (net 9 /P5V))
    (pad 4 smd rect (at 1.1 0.95 270) (size 1.06 0.65) (layers F.Cu F.Paste F.Mask)
      (net 4 "Net-(Q1-Pad1)"))
    (pad 3 smd rect (at -1.1 0.95 270) (size 1.06 0.65) (layers F.Cu F.Paste F.Mask)
      (net 5 "Net-(Q2-Pad1)"))
    (pad 2 smd rect (at -1.1 0 270) (size 1.06 0.65) (layers F.Cu F.Paste F.Mask)
      (net 5 "Net-(Q2-Pad1)"))
    (pad 1 smd rect (at -1.1 -0.95 270) (size 1.06 0.65) (layers F.Cu F.Paste F.Mask)
      (net 5 "Net-(Q2-Pad1)"))
    (model ${KISYS3DMOD}/Package_TO_SOT_SMD.3dshapes/SOT-23-6.wrl
      (at (xyz 0 0 0))
      (scale (xyz 1 1 1))
      (rotate (xyz 0 0 0))
    )
  )

  (module Package_TO_SOT_SMD:SOT-23 (layer F.Cu) (tedit 5A02FF57) (tstamp 614D6994)
    (at 96.52 77.47)
    (descr "SOT-23, Standard")
    (tags SOT-23)
    (path /58E14EB1)
    (attr smd)
    (fp_text reference Q1 (at 0 -2.5) (layer F.SilkS)
      (effects (font (size 1 1) (thickness 0.15)))
    )
    (fp_text value DMG2305UX (at 0 2.5) (layer F.Fab)
      (effects (font (size 1 1) (thickness 0.15)))
    )
    (fp_line (start 0.76 1.58) (end -0.7 1.58) (layer F.SilkS) (width 0.12))
    (fp_line (start 0.76 -1.58) (end -1.4 -1.58) (layer F.SilkS) (width 0.12))
    (fp_line (start -1.7 1.75) (end -1.7 -1.75) (layer F.CrtYd) (width 0.05))
    (fp_line (start 1.7 1.75) (end -1.7 1.75) (layer F.CrtYd) (width 0.05))
    (fp_line (start 1.7 -1.75) (end 1.7 1.75) (layer F.CrtYd) (width 0.05))
    (fp_line (start -1.7 -1.75) (end 1.7 -1.75) (layer F.CrtYd) (width 0.05))
    (fp_line (start 0.76 -1.58) (end 0.76 -0.65) (layer F.SilkS) (width 0.12))
    (fp_line (start 0.76 1.58) (end 0.76 0.65) (layer F.SilkS) (width 0.12))
    (fp_line (start -0.7 1.52) (end 0.7 1.52) (layer F.Fab) (width 0.1))
    (fp_line (start 0.7 -1.52) (end 0.7 1.52) (layer F.Fab) (width 0.1))
    (fp_line (start -0.7 -0.95) (end -0.15 -1.52) (layer F.Fab) (width 0.1))
    (fp_line (start -0.15 -1.52) (end 0.7 -1.52) (layer F.Fab) (width 0.1))
    (fp_line (start -0.7 -0.95) (end -0.7 1.5) (layer F.Fab) (width 0.1))
    (fp_text user %R (at 0 0 90) (layer F.Fab)
      (effects (font (size 0.5 0.5) (thickness 0.075)))
    )
    (pad 3 smd rect (at 1 0) (size 0.9 0.8) (layers F.Cu F.Paste F.Mask)
      (net 9 /P5V))
    (pad 2 smd rect (at -1 0.95) (size 0.9 0.8) (layers F.Cu F.Paste F.Mask)
      (net 7 /P5V_HAT))
    (pad 1 smd rect (at -1 -0.95) (size 0.9 0.8) (layers F.Cu F.Paste F.Mask)
      (net 4 "Net-(Q1-Pad1)"))
    (model ${KISYS3DMOD}/Package_TO_SOT_SMD.3dshapes/SOT-23.wrl
      (at (xyz 0 0 0))
      (scale (xyz 1 1 1))
      (rotate (xyz 0 0 0))
    )
  )

  (module Connector_PinHeader_2.54mm:PinHeader_2x02_P2.54mm_Vertical (layer F.Cu) (tedit 59FED5CC) (tstamp 614D697F)
    (at 86.36 80.01 180)
    (descr "Through hole straight pin header, 2x02, 2.54mm pitch, double rows")
    (tags "Through hole pin header THT 2x02 2.54mm double row")
    (path /58E13683)
    (fp_text reference J6 (at 1.27 -2.33) (layer F.SilkS)
      (effects (font (size 1 1) (thickness 0.15)))
    )
    (fp_text value CONN_02X02 (at 1.27 4.87) (layer F.Fab)
      (effects (font (size 1 1) (thickness 0.15)))
    )
    (fp_text user %R (at 1.27 1.27 90) (layer F.Fab)
      (effects (font (size 1 1) (thickness 0.15)))
    )
    (fp_line (start 4.35 -1.8) (end -1.8 -1.8) (layer F.CrtYd) (width 0.05))
    (fp_line (start 4.35 4.35) (end 4.35 -1.8) (layer F.CrtYd) (width 0.05))
    (fp_line (start -1.8 4.35) (end 4.35 4.35) (layer F.CrtYd) (width 0.05))
    (fp_line (start -1.8 -1.8) (end -1.8 4.35) (layer F.CrtYd) (width 0.05))
    (fp_line (start -1.33 -1.33) (end 0 -1.33) (layer F.SilkS) (width 0.12))
    (fp_line (start -1.33 0) (end -1.33 -1.33) (layer F.SilkS) (width 0.12))
    (fp_line (start 1.27 -1.33) (end 3.87 -1.33) (layer F.SilkS) (width 0.12))
    (fp_line (start 1.27 1.27) (end 1.27 -1.33) (layer F.SilkS) (width 0.12))
    (fp_line (start -1.33 1.27) (end 1.27 1.27) (layer F.SilkS) (width 0.12))
    (fp_line (start 3.87 -1.33) (end 3.87 3.87) (layer F.SilkS) (width 0.12))
    (fp_line (start -1.33 1.27) (end -1.33 3.87) (layer F.SilkS) (width 0.12))
    (fp_line (start -1.33 3.87) (end 3.87 3.87) (layer F.SilkS) (width 0.12))
    (fp_line (start -1.27 0) (end 0 -1.27) (layer F.Fab) (width 0.1))
    (fp_line (start -1.27 3.81) (end -1.27 0) (layer F.Fab) (width 0.1))
    (fp_line (start 3.81 3.81) (end -1.27 3.81) (layer F.Fab) (width 0.1))
    (fp_line (start 3.81 -1.27) (end 3.81 3.81) (layer F.Fab) (width 0.1))
    (fp_line (start 0 -1.27) (end 3.81 -1.27) (layer F.Fab) (width 0.1))
    (pad 4 thru_hole oval (at 2.54 2.54 180) (size 1.7 1.7) (drill 1) (layers *.Cu *.Mask)
      (net 7 /P5V_HAT))
    (pad 3 thru_hole oval (at 0 2.54 180) (size 1.7 1.7) (drill 1) (layers *.Cu *.Mask)
      (net 9 /P5V))
    (pad 2 thru_hole oval (at 2.54 0 180) (size 1.7 1.7) (drill 1) (layers *.Cu *.Mask)
      (net 6 /P3V3_HAT))
    (pad 1 thru_hole rect (at 0 0 180) (size 1.7 1.7) (drill 1) (layers *.Cu *.Mask)
      (net 8 /P3V3))
    (model ${KISYS3DMOD}/Connector_PinHeader_2.54mm.3dshapes/PinHeader_2x02_P2.54mm_Vertical.wrl
      (at (xyz 0 0 0))
      (scale (xyz 1 1 1))
      (rotate (xyz 0 0 0))
    )
  )

  (module Package_DIP:DIP-18_W7.62mm (layer F.Cu) (tedit 5A02E8C5) (tstamp 614D5511)
    (at 127 74.93 270)
    (descr "18-lead though-hole mounted DIP package, row spacing 7.62 mm (300 mils)")
    (tags "THT DIP DIL PDIP 2.54mm 7.62mm 300mil")
    (path /614D22EE)
    (fp_text reference U1 (at 3.81 -2.33 90) (layer F.SilkS)
      (effects (font (size 1 1) (thickness 0.15)))
    )
    (fp_text value MAX202 (at 3.81 22.65 90) (layer F.Fab)
      (effects (font (size 1 1) (thickness 0.15)))
    )
    (fp_text user %R (at 3.81 10.16 90) (layer F.Fab)
      (effects (font (size 1 1) (thickness 0.15)))
    )
    (fp_line (start 8.7 -1.55) (end -1.1 -1.55) (layer F.CrtYd) (width 0.05))
    (fp_line (start 8.7 21.85) (end 8.7 -1.55) (layer F.CrtYd) (width 0.05))
    (fp_line (start -1.1 21.85) (end 8.7 21.85) (layer F.CrtYd) (width 0.05))
    (fp_line (start -1.1 -1.55) (end -1.1 21.85) (layer F.CrtYd) (width 0.05))
    (fp_line (start 6.46 -1.33) (end 4.81 -1.33) (layer F.SilkS) (width 0.12))
    (fp_line (start 6.46 21.65) (end 6.46 -1.33) (layer F.SilkS) (width 0.12))
    (fp_line (start 1.16 21.65) (end 6.46 21.65) (layer F.SilkS) (width 0.12))
    (fp_line (start 1.16 -1.33) (end 1.16 21.65) (layer F.SilkS) (width 0.12))
    (fp_line (start 2.81 -1.33) (end 1.16 -1.33) (layer F.SilkS) (width 0.12))
    (fp_line (start 0.635 -0.27) (end 1.635 -1.27) (layer F.Fab) (width 0.1))
    (fp_line (start 0.635 21.59) (end 0.635 -0.27) (layer F.Fab) (width 0.1))
    (fp_line (start 6.985 21.59) (end 0.635 21.59) (layer F.Fab) (width 0.1))
    (fp_line (start 6.985 -1.27) (end 6.985 21.59) (layer F.Fab) (width 0.1))
    (fp_line (start 1.635 -1.27) (end 6.985 -1.27) (layer F.Fab) (width 0.1))
    (fp_arc (start 3.81 -1.33) (end 2.81 -1.33) (angle -180) (layer F.SilkS) (width 0.12))
    (pad 18 thru_hole oval (at 7.62 0 270) (size 1.6 1.6) (drill 0.8) (layers *.Cu *.Mask))
    (pad 9 thru_hole oval (at 0 20.32 270) (size 1.6 1.6) (drill 0.8) (layers *.Cu *.Mask)
      (net 43 /SERIAL_TX))
    (pad 17 thru_hole oval (at 7.62 2.54 270) (size 1.6 1.6) (drill 0.8) (layers *.Cu *.Mask))
    (pad 8 thru_hole oval (at 0 17.78 270) (size 1.6 1.6) (drill 0.8) (layers *.Cu *.Mask)
      (net 19 /UART_TX))
    (pad 16 thru_hole oval (at 7.62 5.08 270) (size 1.6 1.6) (drill 0.8) (layers *.Cu *.Mask)
      (net 7 /P5V_HAT))
    (pad 7 thru_hole oval (at 0 15.24 270) (size 1.6 1.6) (drill 0.8) (layers *.Cu *.Mask)
      (net 20 /UART_RX))
    (pad 15 thru_hole oval (at 7.62 7.62 270) (size 1.6 1.6) (drill 0.8) (layers *.Cu *.Mask)
      (net 1 GND))
    (pad 6 thru_hole oval (at 0 12.7 270) (size 1.6 1.6) (drill 0.8) (layers *.Cu *.Mask)
      (net 15 "Net-(C5-Pad2)"))
    (pad 14 thru_hole oval (at 7.62 10.16 270) (size 1.6 1.6) (drill 0.8) (layers *.Cu *.Mask)
      (net 44 "Net-(U1-Pad14)"))
    (pad 5 thru_hole oval (at 0 10.16 270) (size 1.6 1.6) (drill 0.8) (layers *.Cu *.Mask)
      (net 13 "Net-(C4-Pad2)"))
    (pad 13 thru_hole oval (at 7.62 12.7 270) (size 1.6 1.6) (drill 0.8) (layers *.Cu *.Mask)
      (net 45 "Net-(U1-Pad13)"))
    (pad 4 thru_hole oval (at 0 7.62 270) (size 1.6 1.6) (drill 0.8) (layers *.Cu *.Mask)
      (net 14 "Net-(C4-Pad1)"))
    (pad 12 thru_hole oval (at 7.62 15.24 270) (size 1.6 1.6) (drill 0.8) (layers *.Cu *.Mask)
      (net 46 "Net-(U1-Pad12)"))
    (pad 3 thru_hole oval (at 0 5.08 270) (size 1.6 1.6) (drill 0.8) (layers *.Cu *.Mask)
      (net 10 "Net-(C2-Pad2)"))
    (pad 11 thru_hole oval (at 7.62 17.78 270) (size 1.6 1.6) (drill 0.8) (layers *.Cu *.Mask)
      (net 47 "Net-(U1-Pad11)"))
    (pad 2 thru_hole oval (at 0 2.54 270) (size 1.6 1.6) (drill 0.8) (layers *.Cu *.Mask)
      (net 12 "Net-(C3-Pad1)"))
    (pad 10 thru_hole oval (at 7.62 20.32 270) (size 1.6 1.6) (drill 0.8) (layers *.Cu *.Mask)
      (net 48 /SERIAL_RX))
    (pad 1 thru_hole rect (at 0 0 270) (size 1.6 1.6) (drill 0.8) (layers *.Cu *.Mask)
      (net 11 "Net-(C2-Pad1)"))
    (model ${KISYS3DMOD}/Package_DIP.3dshapes/DIP-18_W7.62mm.wrl
      (at (xyz 0 0 0))
      (scale (xyz 1 1 1))
      (rotate (xyz 0 0 0))
    )
  )

  (module Capacitor_SMD:C_0805_2012Metric (layer F.Cu) (tedit 5B36C52B) (tstamp 614D52F3)
    (at 116.84 69.85 180)
    (descr "Capacitor SMD 0805 (2012 Metric), square (rectangular) end terminal, IPC_7351 nominal, (Body size source: https://docs.google.com/spreadsheets/d/1BsfQQcO9C6DZCsRaXUlFlo91Tg2WpOkGARC1WS5S8t0/edit?usp=sharing), generated with kicad-footprint-generator")
    (tags capacitor)
    (path /614E00B1)
    (attr smd)
    (fp_text reference C5 (at 0 -1.65) (layer F.SilkS)
      (effects (font (size 1 1) (thickness 0.15)))
    )
    (fp_text value CP1 (at 0 1.65) (layer F.Fab)
      (effects (font (size 1 1) (thickness 0.15)))
    )
    (fp_text user %R (at 0 0) (layer F.Fab)
      (effects (font (size 0.5 0.5) (thickness 0.08)))
    )
    (fp_line (start 1.68 0.95) (end -1.68 0.95) (layer F.CrtYd) (width 0.05))
    (fp_line (start 1.68 -0.95) (end 1.68 0.95) (layer F.CrtYd) (width 0.05))
    (fp_line (start -1.68 -0.95) (end 1.68 -0.95) (layer F.CrtYd) (width 0.05))
    (fp_line (start -1.68 0.95) (end -1.68 -0.95) (layer F.CrtYd) (width 0.05))
    (fp_line (start -0.258578 0.71) (end 0.258578 0.71) (layer F.SilkS) (width 0.12))
    (fp_line (start -0.258578 -0.71) (end 0.258578 -0.71) (layer F.SilkS) (width 0.12))
    (fp_line (start 1 0.6) (end -1 0.6) (layer F.Fab) (width 0.1))
    (fp_line (start 1 -0.6) (end 1 0.6) (layer F.Fab) (width 0.1))
    (fp_line (start -1 -0.6) (end 1 -0.6) (layer F.Fab) (width 0.1))
    (fp_line (start -1 0.6) (end -1 -0.6) (layer F.Fab) (width 0.1))
    (pad 2 smd roundrect (at 0.9375 0 180) (size 0.975 1.4) (layers F.Cu F.Paste F.Mask) (roundrect_rratio 0.25)
      (net 15 "Net-(C5-Pad2)"))
    (pad 1 smd roundrect (at -0.9375 0 180) (size 0.975 1.4) (layers F.Cu F.Paste F.Mask) (roundrect_rratio 0.25)
      (net 1 GND))
    (model ${KISYS3DMOD}/Capacitor_SMD.3dshapes/C_0805_2012Metric.wrl
      (at (xyz 0 0 0))
      (scale (xyz 1 1 1))
      (rotate (xyz 0 0 0))
    )
  )

  (module Capacitor_SMD:C_0805_2012Metric (layer F.Cu) (tedit 5B36C52B) (tstamp 614D52E2)
    (at 118.4425 72.39 180)
    (descr "Capacitor SMD 0805 (2012 Metric), square (rectangular) end terminal, IPC_7351 nominal, (Body size source: https://docs.google.com/spreadsheets/d/1BsfQQcO9C6DZCsRaXUlFlo91Tg2WpOkGARC1WS5S8t0/edit?usp=sharing), generated with kicad-footprint-generator")
    (tags capacitor)
    (path /614DD19D)
    (attr smd)
    (fp_text reference C4 (at 0 -1.65) (layer F.SilkS)
      (effects (font (size 1 1) (thickness 0.15)))
    )
    (fp_text value CP1 (at 0 1.65) (layer F.Fab)
      (effects (font (size 1 1) (thickness 0.15)))
    )
    (fp_text user %R (at 0 0) (layer F.Fab)
      (effects (font (size 0.5 0.5) (thickness 0.08)))
    )
    (fp_line (start 1.68 0.95) (end -1.68 0.95) (layer F.CrtYd) (width 0.05))
    (fp_line (start 1.68 -0.95) (end 1.68 0.95) (layer F.CrtYd) (width 0.05))
    (fp_line (start -1.68 -0.95) (end 1.68 -0.95) (layer F.CrtYd) (width 0.05))
    (fp_line (start -1.68 0.95) (end -1.68 -0.95) (layer F.CrtYd) (width 0.05))
    (fp_line (start -0.258578 0.71) (end 0.258578 0.71) (layer F.SilkS) (width 0.12))
    (fp_line (start -0.258578 -0.71) (end 0.258578 -0.71) (layer F.SilkS) (width 0.12))
    (fp_line (start 1 0.6) (end -1 0.6) (layer F.Fab) (width 0.1))
    (fp_line (start 1 -0.6) (end 1 0.6) (layer F.Fab) (width 0.1))
    (fp_line (start -1 -0.6) (end 1 -0.6) (layer F.Fab) (width 0.1))
    (fp_line (start -1 0.6) (end -1 -0.6) (layer F.Fab) (width 0.1))
    (pad 2 smd roundrect (at 0.9375 0 180) (size 0.975 1.4) (layers F.Cu F.Paste F.Mask) (roundrect_rratio 0.25)
      (net 13 "Net-(C4-Pad2)"))
    (pad 1 smd roundrect (at -0.9375 0 180) (size 0.975 1.4) (layers F.Cu F.Paste F.Mask) (roundrect_rratio 0.25)
      (net 14 "Net-(C4-Pad1)"))
    (model ${KISYS3DMOD}/Capacitor_SMD.3dshapes/C_0805_2012Metric.wrl
      (at (xyz 0 0 0))
      (scale (xyz 1 1 1))
      (rotate (xyz 0 0 0))
    )
  )

  (module Capacitor_SMD:C_0805_2012Metric (layer F.Cu) (tedit 5B36C52B) (tstamp 614D52D1)
    (at 125.3975 86.36 180)
    (descr "Capacitor SMD 0805 (2012 Metric), square (rectangular) end terminal, IPC_7351 nominal, (Body size source: https://docs.google.com/spreadsheets/d/1BsfQQcO9C6DZCsRaXUlFlo91Tg2WpOkGARC1WS5S8t0/edit?usp=sharing), generated with kicad-footprint-generator")
    (tags capacitor)
    (path /614E2DC5)
    (attr smd)
    (fp_text reference C3 (at 0 -1.65) (layer F.SilkS)
      (effects (font (size 1 1) (thickness 0.15)))
    )
    (fp_text value CP1 (at 0 1.65) (layer F.Fab)
      (effects (font (size 1 1) (thickness 0.15)))
    )
    (fp_text user %R (at 0 0) (layer F.Fab)
      (effects (font (size 0.5 0.5) (thickness 0.08)))
    )
    (fp_line (start 1.68 0.95) (end -1.68 0.95) (layer F.CrtYd) (width 0.05))
    (fp_line (start 1.68 -0.95) (end 1.68 0.95) (layer F.CrtYd) (width 0.05))
    (fp_line (start -1.68 -0.95) (end 1.68 -0.95) (layer F.CrtYd) (width 0.05))
    (fp_line (start -1.68 0.95) (end -1.68 -0.95) (layer F.CrtYd) (width 0.05))
    (fp_line (start -0.258578 0.71) (end 0.258578 0.71) (layer F.SilkS) (width 0.12))
    (fp_line (start -0.258578 -0.71) (end 0.258578 -0.71) (layer F.SilkS) (width 0.12))
    (fp_line (start 1 0.6) (end -1 0.6) (layer F.Fab) (width 0.1))
    (fp_line (start 1 -0.6) (end 1 0.6) (layer F.Fab) (width 0.1))
    (fp_line (start -1 -0.6) (end 1 -0.6) (layer F.Fab) (width 0.1))
    (fp_line (start -1 0.6) (end -1 -0.6) (layer F.Fab) (width 0.1))
    (pad 2 smd roundrect (at 0.9375 0 180) (size 0.975 1.4) (layers F.Cu F.Paste F.Mask) (roundrect_rratio 0.25)
      (net 7 /P5V_HAT))
    (pad 1 smd roundrect (at -0.9375 0 180) (size 0.975 1.4) (layers F.Cu F.Paste F.Mask) (roundrect_rratio 0.25)
      (net 12 "Net-(C3-Pad1)"))
    (model ${KISYS3DMOD}/Capacitor_SMD.3dshapes/C_0805_2012Metric.wrl
      (at (xyz 0 0 0))
      (scale (xyz 1 1 1))
      (rotate (xyz 0 0 0))
    )
  )

  (module Capacitor_SMD:C_0805_2012Metric (layer F.Cu) (tedit 5B36C52B) (tstamp 614D52C0)
    (at 124.46 72.39 180)
    (descr "Capacitor SMD 0805 (2012 Metric), square (rectangular) end terminal, IPC_7351 nominal, (Body size source: https://docs.google.com/spreadsheets/d/1BsfQQcO9C6DZCsRaXUlFlo91Tg2WpOkGARC1WS5S8t0/edit?usp=sharing), generated with kicad-footprint-generator")
    (tags capacitor)
    (path /614DAA1F)
    (attr smd)
    (fp_text reference C2 (at 0 -1.65) (layer F.SilkS)
      (effects (font (size 1 1) (thickness 0.15)))
    )
    (fp_text value CP1 (at 0 1.65) (layer F.Fab)
      (effects (font (size 1 1) (thickness 0.15)))
    )
    (fp_text user %R (at 0 0) (layer F.Fab)
      (effects (font (size 0.5 0.5) (thickness 0.08)))
    )
    (fp_line (start 1.68 0.95) (end -1.68 0.95) (layer F.CrtYd) (width 0.05))
    (fp_line (start 1.68 -0.95) (end 1.68 0.95) (layer F.CrtYd) (width 0.05))
    (fp_line (start -1.68 -0.95) (end 1.68 -0.95) (layer F.CrtYd) (width 0.05))
    (fp_line (start -1.68 0.95) (end -1.68 -0.95) (layer F.CrtYd) (width 0.05))
    (fp_line (start -0.258578 0.71) (end 0.258578 0.71) (layer F.SilkS) (width 0.12))
    (fp_line (start -0.258578 -0.71) (end 0.258578 -0.71) (layer F.SilkS) (width 0.12))
    (fp_line (start 1 0.6) (end -1 0.6) (layer F.Fab) (width 0.1))
    (fp_line (start 1 -0.6) (end 1 0.6) (layer F.Fab) (width 0.1))
    (fp_line (start -1 -0.6) (end 1 -0.6) (layer F.Fab) (width 0.1))
    (fp_line (start -1 0.6) (end -1 -0.6) (layer F.Fab) (width 0.1))
    (pad 2 smd roundrect (at 0.9375 0 180) (size 0.975 1.4) (layers F.Cu F.Paste F.Mask) (roundrect_rratio 0.25)
      (net 10 "Net-(C2-Pad2)"))
    (pad 1 smd roundrect (at -0.9375 0 180) (size 0.975 1.4) (layers F.Cu F.Paste F.Mask) (roundrect_rratio 0.25)
      (net 11 "Net-(C2-Pad1)"))
    (model ${KISYS3DMOD}/Capacitor_SMD.3dshapes/C_0805_2012Metric.wrl
      (at (xyz 0 0 0))
      (scale (xyz 1 1 1))
      (rotate (xyz 0 0 0))
    )
  )

  (module Capacitor_SMD:C_0805_2012Metric (layer F.Cu) (tedit 5B36C52B) (tstamp 614D52AF)
    (at 120.65 86.36 180)
    (descr "Capacitor SMD 0805 (2012 Metric), square (rectangular) end terminal, IPC_7351 nominal, (Body size source: https://docs.google.com/spreadsheets/d/1BsfQQcO9C6DZCsRaXUlFlo91Tg2WpOkGARC1WS5S8t0/edit?usp=sharing), generated with kicad-footprint-generator")
    (tags capacitor)
    (path /614D493E)
    (attr smd)
    (fp_text reference C1 (at 0 -1.65) (layer F.SilkS)
      (effects (font (size 1 1) (thickness 0.15)))
    )
    (fp_text value CP1 (at 0 1.65) (layer F.Fab)
      (effects (font (size 1 1) (thickness 0.15)))
    )
    (fp_text user %R (at 0 0) (layer F.Fab)
      (effects (font (size 0.5 0.5) (thickness 0.08)))
    )
    (fp_line (start 1.68 0.95) (end -1.68 0.95) (layer F.CrtYd) (width 0.05))
    (fp_line (start 1.68 -0.95) (end 1.68 0.95) (layer F.CrtYd) (width 0.05))
    (fp_line (start -1.68 -0.95) (end 1.68 -0.95) (layer F.CrtYd) (width 0.05))
    (fp_line (start -1.68 0.95) (end -1.68 -0.95) (layer F.CrtYd) (width 0.05))
    (fp_line (start -0.258578 0.71) (end 0.258578 0.71) (layer F.SilkS) (width 0.12))
    (fp_line (start -0.258578 -0.71) (end 0.258578 -0.71) (layer F.SilkS) (width 0.12))
    (fp_line (start 1 0.6) (end -1 0.6) (layer F.Fab) (width 0.1))
    (fp_line (start 1 -0.6) (end 1 0.6) (layer F.Fab) (width 0.1))
    (fp_line (start -1 -0.6) (end 1 -0.6) (layer F.Fab) (width 0.1))
    (fp_line (start -1 0.6) (end -1 -0.6) (layer F.Fab) (width 0.1))
    (pad 2 smd roundrect (at 0.9375 0 180) (size 0.975 1.4) (layers F.Cu F.Paste F.Mask) (roundrect_rratio 0.25)
      (net 1 GND))
    (pad 1 smd roundrect (at -0.9375 0 180) (size 0.975 1.4) (layers F.Cu F.Paste F.Mask) (roundrect_rratio 0.25)
      (net 7 /P5V_HAT))
    (model ${KISYS3DMOD}/Capacitor_SMD.3dshapes/C_0805_2012Metric.wrl
      (at (xyz 0 0 0))
      (scale (xyz 1 1 1))
      (rotate (xyz 0 0 0))
    )
  )

  (module Connector_PinSocket_2.54mm:PinSocket_2x20_P2.54mm_Vertical locked (layer B.Cu) (tedit 5A19A433) (tstamp 5A78A50E)
    (at 86.92 65.59 270)
    (descr "Through hole straight socket strip, 2x20, 2.54mm pitch, double cols (from Kicad 4.0.7), script generated")
    (tags "Through hole socket strip THT 2x20 2.54mm double row")
    (path /58DFC771)
    (fp_text reference J3 (at -1.27 2.77 270) (layer B.SilkS)
      (effects (font (size 1 1) (thickness 0.15)) (justify mirror))
    )
    (fp_text value 40HAT (at -1.27 -51.03 270) (layer B.Fab)
      (effects (font (size 0.6 0.6) (thickness 0.09)) (justify mirror))
    )
    (fp_line (start -3.81 1.27) (end 0.27 1.27) (layer B.Fab) (width 0.1))
    (fp_line (start 0.27 1.27) (end 1.27 0.27) (layer B.Fab) (width 0.1))
    (fp_line (start 1.27 0.27) (end 1.27 -49.53) (layer B.Fab) (width 0.1))
    (fp_line (start 1.27 -49.53) (end -3.81 -49.53) (layer B.Fab) (width 0.1))
    (fp_line (start -3.81 -49.53) (end -3.81 1.27) (layer B.Fab) (width 0.1))
    (fp_line (start -3.87 1.33) (end -1.27 1.33) (layer B.SilkS) (width 0.12))
    (fp_line (start -3.87 1.33) (end -3.87 -49.59) (layer B.SilkS) (width 0.12))
    (fp_line (start -3.87 -49.59) (end 1.33 -49.59) (layer B.SilkS) (width 0.12))
    (fp_line (start 1.33 -1.27) (end 1.33 -49.59) (layer B.SilkS) (width 0.12))
    (fp_line (start -1.27 -1.27) (end 1.33 -1.27) (layer B.SilkS) (width 0.12))
    (fp_line (start -1.27 1.33) (end -1.27 -1.27) (layer B.SilkS) (width 0.12))
    (fp_line (start 1.33 1.33) (end 1.33 0) (layer B.SilkS) (width 0.12))
    (fp_line (start 0 1.33) (end 1.33 1.33) (layer B.SilkS) (width 0.12))
    (fp_line (start -4.34 1.8) (end 1.76 1.8) (layer B.CrtYd) (width 0.05))
    (fp_line (start 1.76 1.8) (end 1.76 -50) (layer B.CrtYd) (width 0.05))
    (fp_line (start 1.76 -50) (end -4.34 -50) (layer B.CrtYd) (width 0.05))
    (fp_line (start -4.34 -50) (end -4.34 1.8) (layer B.CrtYd) (width 0.05))
    (fp_text user %R (at -1.27 -24.13 180) (layer B.Fab)
      (effects (font (size 1 1) (thickness 0.15)) (justify mirror))
    )
    (pad 1 thru_hole rect (at 0 0 270) (size 1.7 1.7) (drill 1) (layers *.Cu *.Mask)
      (net 6 /P3V3_HAT))
    (pad 2 thru_hole oval (at -2.54 0 270) (size 1.7 1.7) (drill 1) (layers *.Cu *.Mask)
      (net 7 /P5V_HAT))
    (pad 3 thru_hole oval (at 0 -2.54 270) (size 1.7 1.7) (drill 1) (layers *.Cu *.Mask)
      (net 16 "Net-(J3-Pad3)"))
    (pad 4 thru_hole oval (at -2.54 -2.54 270) (size 1.7 1.7) (drill 1) (layers *.Cu *.Mask)
      (net 7 /P5V_HAT))
    (pad 5 thru_hole oval (at 0 -5.08 270) (size 1.7 1.7) (drill 1) (layers *.Cu *.Mask)
      (net 17 "Net-(J3-Pad5)"))
    (pad 6 thru_hole oval (at -2.54 -5.08 270) (size 1.7 1.7) (drill 1) (layers *.Cu *.Mask)
      (net 1 GND))
    (pad 7 thru_hole oval (at 0 -7.62 270) (size 1.7 1.7) (drill 1) (layers *.Cu *.Mask)
      (net 18 "Net-(J3-Pad7)"))
    (pad 8 thru_hole oval (at -2.54 -7.62 270) (size 1.7 1.7) (drill 1) (layers *.Cu *.Mask)
      (net 19 /UART_TX))
    (pad 9 thru_hole oval (at 0 -10.16 270) (size 1.7 1.7) (drill 1) (layers *.Cu *.Mask)
      (net 1 GND))
    (pad 10 thru_hole oval (at -2.54 -10.16 270) (size 1.7 1.7) (drill 1) (layers *.Cu *.Mask)
      (net 20 /UART_RX))
    (pad 11 thru_hole oval (at 0 -12.7 270) (size 1.7 1.7) (drill 1) (layers *.Cu *.Mask)
      (net 21 "Net-(J3-Pad11)"))
    (pad 12 thru_hole oval (at -2.54 -12.7 270) (size 1.7 1.7) (drill 1) (layers *.Cu *.Mask)
      (net 22 "Net-(J3-Pad12)"))
    (pad 13 thru_hole oval (at 0 -15.24 270) (size 1.7 1.7) (drill 1) (layers *.Cu *.Mask)
      (net 23 "Net-(J3-Pad13)"))
    (pad 14 thru_hole oval (at -2.54 -15.24 270) (size 1.7 1.7) (drill 1) (layers *.Cu *.Mask)
      (net 1 GND))
    (pad 15 thru_hole oval (at 0 -17.78 270) (size 1.7 1.7) (drill 1) (layers *.Cu *.Mask)
      (net 24 "Net-(J3-Pad15)"))
    (pad 16 thru_hole oval (at -2.54 -17.78 270) (size 1.7 1.7) (drill 1) (layers *.Cu *.Mask)
      (net 25 "Net-(J3-Pad16)"))
    (pad 17 thru_hole oval (at 0 -20.32 270) (size 1.7 1.7) (drill 1) (layers *.Cu *.Mask)
      (net 26 "Net-(J3-Pad17)"))
    (pad 18 thru_hole oval (at -2.54 -20.32 270) (size 1.7 1.7) (drill 1) (layers *.Cu *.Mask)
      (net 27 "Net-(J3-Pad18)"))
    (pad 19 thru_hole oval (at 0 -22.86 270) (size 1.7 1.7) (drill 1) (layers *.Cu *.Mask)
      (net 28 "Net-(J3-Pad19)"))
    (pad 20 thru_hole oval (at -2.54 -22.86 270) (size 1.7 1.7) (drill 1) (layers *.Cu *.Mask)
      (net 1 GND))
    (pad 21 thru_hole oval (at 0 -25.4 270) (size 1.7 1.7) (drill 1) (layers *.Cu *.Mask)
      (net 29 "Net-(J3-Pad21)"))
    (pad 22 thru_hole oval (at -2.54 -25.4 270) (size 1.7 1.7) (drill 1) (layers *.Cu *.Mask)
      (net 30 "Net-(J3-Pad22)"))
    (pad 23 thru_hole oval (at 0 -27.94 270) (size 1.7 1.7) (drill 1) (layers *.Cu *.Mask)
      (net 31 "Net-(J3-Pad23)"))
    (pad 24 thru_hole oval (at -2.54 -27.94 270) (size 1.7 1.7) (drill 1) (layers *.Cu *.Mask)
      (net 32 "Net-(J3-Pad24)"))
    (pad 25 thru_hole oval (at 0 -30.48 270) (size 1.7 1.7) (drill 1) (layers *.Cu *.Mask)
      (net 1 GND))
    (pad 26 thru_hole oval (at -2.54 -30.48 270) (size 1.7 1.7) (drill 1) (layers *.Cu *.Mask)
      (net 33 "Net-(J3-Pad26)"))
    (pad 27 thru_hole oval (at 0 -33.02 270) (size 1.7 1.7) (drill 1) (layers *.Cu *.Mask)
      (net 2 /ID_SD_EEPROM))
    (pad 28 thru_hole oval (at -2.54 -33.02 270) (size 1.7 1.7) (drill 1) (layers *.Cu *.Mask)
      (net 3 /ID_SC_EEPROM))
    (pad 29 thru_hole oval (at 0 -35.56 270) (size 1.7 1.7) (drill 1) (layers *.Cu *.Mask)
      (net 34 "Net-(J3-Pad29)"))
    (pad 30 thru_hole oval (at -2.54 -35.56 270) (size 1.7 1.7) (drill 1) (layers *.Cu *.Mask)
      (net 1 GND))
    (pad 31 thru_hole oval (at 0 -38.1 270) (size 1.7 1.7) (drill 1) (layers *.Cu *.Mask)
      (net 35 "Net-(J3-Pad31)"))
    (pad 32 thru_hole oval (at -2.54 -38.1 270) (size 1.7 1.7) (drill 1) (layers *.Cu *.Mask)
      (net 36 "Net-(J3-Pad32)"))
    (pad 33 thru_hole oval (at 0 -40.64 270) (size 1.7 1.7) (drill 1) (layers *.Cu *.Mask)
      (net 37 "Net-(J3-Pad33)"))
    (pad 34 thru_hole oval (at -2.54 -40.64 270) (size 1.7 1.7) (drill 1) (layers *.Cu *.Mask)
      (net 1 GND))
    (pad 35 thru_hole oval (at 0 -43.18 270) (size 1.7 1.7) (drill 1) (layers *.Cu *.Mask)
      (net 38 "Net-(J3-Pad35)"))
    (pad 36 thru_hole oval (at -2.54 -43.18 270) (size 1.7 1.7) (drill 1) (layers *.Cu *.Mask)
      (net 39 "Net-(J3-Pad36)"))
    (pad 37 thru_hole oval (at 0 -45.72 270) (size 1.7 1.7) (drill 1) (layers *.Cu *.Mask)
      (net 40 "Net-(J3-Pad37)"))
    (pad 38 thru_hole oval (at -2.54 -45.72 270) (size 1.7 1.7) (drill 1) (layers *.Cu *.Mask)
      (net 41 "Net-(J3-Pad38)"))
    (pad 39 thru_hole oval (at 0 -48.26 270) (size 1.7 1.7) (drill 1) (layers *.Cu *.Mask)
      (net 1 GND))
    (pad 40 thru_hole oval (at -2.54 -48.26 270) (size 1.7 1.7) (drill 1) (layers *.Cu *.Mask)
      (net 42 "Net-(J3-Pad40)"))
    (model ${KISYS3DMOD}/Connector_PinSocket_2.54mm.3dshapes/PinSocket_2x20_P2.54mm_Vertical.wrl
      (at (xyz 0 0 0))
      (scale (xyz 1 1 1))
      (rotate (xyz 0 0 0))
    )
  )

  (module project_footprints:NPTH_3mm_ID locked (layer F.Cu) (tedit 5A6D0885) (tstamp 58E3B082)
    (at 82.04 64.31)
    (path /5834BC4A)
    (fp_text reference H1 (at 0.06 0.09) (layer F.SilkS)
      (effects (font (size 1 1) (thickness 0.15)))
    )
    (fp_text value 3mm_Mounting_Hole (at 0 -2.7) (layer F.Fab) hide
      (effects (font (size 0.6 0.6) (thickness 0.09)))
    )
    (pad "" np_thru_hole circle (at 0 0) (size 3 3) (drill 2.75) (layers *.Cu *.Mask)
      (clearance 1.6))
  )

  (module project_footprints:NPTH_3mm_ID locked (layer F.Cu) (tedit 5A6D088A) (tstamp 58E3B086)
    (at 140.04 64.33)
    (path /5834BCDF)
    (fp_text reference H2 (at 0.06 0.09) (layer F.SilkS)
      (effects (font (size 1 1) (thickness 0.15)))
    )
    (fp_text value 3mm_Mounting_Hole (at 0 -2.7) (layer F.Fab) hide
      (effects (font (size 0.6 0.6) (thickness 0.09)))
    )
    (pad "" np_thru_hole circle (at 0 0) (size 3 3) (drill 2.75) (layers *.Cu *.Mask)
      (clearance 1.6))
  )

  (module project_footprints:NPTH_3mm_ID locked (layer F.Cu) (tedit 5A6D0898) (tstamp 58E3B08A)
    (at 82.04 113.32)
    (path /5834BD62)
    (fp_text reference H3 (at 0.06 0.09) (layer F.SilkS)
      (effects (font (size 1 1) (thickness 0.15)))
    )
    (fp_text value 3mm_Mounting_Hole (at 0 -2.7) (layer F.Fab) hide
      (effects (font (size 0.6 0.6) (thickness 0.09)))
    )
    (pad "" np_thru_hole circle (at 0 0) (size 3 3) (drill 2.75) (layers *.Cu *.Mask)
      (clearance 1.6))
  )

  (module project_footprints:NPTH_3mm_ID locked (layer F.Cu) (tedit 5A6D0891) (tstamp 58E3B08E)
    (at 140.03 113.31)
    (path /5834BDED)
    (fp_text reference H4 (at 0.06 0.09) (layer F.SilkS)
      (effects (font (size 1 1) (thickness 0.15)))
    )
    (fp_text value 3mm_Mounting_Hole (at 0 -2.7) (layer F.Fab) hide
      (effects (font (size 0.6 0.6) (thickness 0.09)))
    )
    (pad "" np_thru_hole circle (at 0 0) (size 3 3) (drill 2.75) (layers *.Cu *.Mask)
      (clearance 1.6))
  )

  (gr_text "If you want to use an SMT 40-pin header, please move the top edge up \nby 0.5mm and locate the header in the same location as the current TH part." (at 117.3 47.5) (layer Cmts.User)
    (effects (font (size 1.5 1.5) (thickness 0.3)))
  )
  (gr_text "This is a HAT compatible PCB starting design based on the official\nRaspberry Pi specs at:\nhttps://github.com/raspberrypi/hats/blob/master/designguide.md\n\nCurrently the camera slot and display cutout are not here. \nSee the schematic for the details on the EEPROM and power setup.\n\nThis board does have the correct components for powering the Pi via\nthe HAT. If you need the Pi to provide 5V or 3.3V, please remove or\nconnect the appropriate components." (at 189.4 83.7) (layer Cmts.User)
    (effects (font (size 1.5 1.5) (thickness 0.3)))
  )
  (gr_line (start 78.546356 63.817611) (end 78.546356 113.817611) (layer Edge.Cuts) (width 0.1))
  (gr_arc (start 81.546356 63.817611) (end 81.546356 60.817611) (angle -90) (layer Edge.Cuts) (width 0.1))
  (gr_line (start 140.546356 60.817611) (end 81.546356 60.817611) (layer Edge.Cuts) (width 0.1))
  (gr_arc (start 140.546356 63.817611) (end 143.546356 63.817611) (angle -90) (layer Edge.Cuts) (width 0.1))
  (gr_line (start 143.546356 113.817611) (end 143.546356 63.817611) (layer Edge.Cuts) (width 0.1))
  (gr_circle (center 86.916356 63.047611) (end 87.416356 63.047611) (layer Dwgs.User) (width 0.1))
  (gr_circle (center 135.176356 63.047611) (end 135.676356 63.047611) (layer Dwgs.User) (width 0.1))
  (gr_circle (center 132.636356 63.047611) (end 133.136356 63.047611) (layer Dwgs.User) (width 0.1))
  (gr_circle (center 130.096356 63.047611) (end 130.596356 63.047611) (layer Dwgs.User) (width 0.1))
  (gr_circle (center 127.556356 63.047611) (end 128.056356 63.047611) (layer Dwgs.User) (width 0.1))
  (gr_circle (center 125.016356 63.047611) (end 125.516356 63.047611) (layer Dwgs.User) (width 0.1))
  (gr_circle (center 122.476356 63.047611) (end 122.976356 63.047611) (layer Dwgs.User) (width 0.1))
  (gr_circle (center 119.936356 63.047611) (end 120.436356 63.047611) (layer Dwgs.User) (width 0.1))
  (gr_circle (center 117.396356 63.047611) (end 117.896356 63.047611) (layer Dwgs.User) (width 0.1))
  (gr_circle (center 114.856356 63.047611) (end 115.356356 63.047611) (layer Dwgs.User) (width 0.1))
  (gr_circle (center 112.316356 63.047611) (end 112.816356 63.047611) (layer Dwgs.User) (width 0.1))
  (gr_circle (center 109.776356 63.047611) (end 110.276356 63.047611) (layer Dwgs.User) (width 0.1))
  (gr_circle (center 107.236356 63.047611) (end 107.736356 63.047611) (layer Dwgs.User) (width 0.1))
  (gr_circle (center 104.696356 63.047611) (end 105.196356 63.047611) (layer Dwgs.User) (width 0.1))
  (gr_circle (center 102.156356 63.047611) (end 102.656356 63.047611) (layer Dwgs.User) (width 0.1))
  (gr_circle (center 99.616356 63.047611) (end 100.116356 63.047611) (layer Dwgs.User) (width 0.1))
  (gr_circle (center 97.076356 63.047611) (end 97.576356 63.047611) (layer Dwgs.User) (width 0.1))
  (gr_circle (center 94.536356 63.047611) (end 95.036356 63.047611) (layer Dwgs.User) (width 0.1))
  (gr_circle (center 91.996356 63.047611) (end 92.496356 63.047611) (layer Dwgs.User) (width 0.1))
  (gr_circle (center 89.456356 63.047611) (end 89.956356 63.047611) (layer Dwgs.User) (width 0.1))
  (gr_circle (center 135.176356 65.587611) (end 135.676356 65.587611) (layer Dwgs.User) (width 0.1))
  (gr_circle (center 132.636356 65.587611) (end 133.136356 65.587611) (layer Dwgs.User) (width 0.1))
  (gr_circle (center 130.096356 65.587611) (end 130.596356 65.587611) (layer Dwgs.User) (width 0.1))
  (gr_circle (center 127.556356 65.587611) (end 128.056356 65.587611) (layer Dwgs.User) (width 0.1))
  (gr_circle (center 125.016356 65.587611) (end 125.516356 65.587611) (layer Dwgs.User) (width 0.1))
  (gr_circle (center 122.476356 65.587611) (end 122.976356 65.587611) (layer Dwgs.User) (width 0.1))
  (gr_circle (center 119.936356 65.587611) (end 120.436356 65.587611) (layer Dwgs.User) (width 0.1))
  (gr_circle (center 117.396356 65.587611) (end 117.896356 65.587611) (layer Dwgs.User) (width 0.1))
  (gr_circle (center 114.856356 65.587611) (end 115.356356 65.587611) (layer Dwgs.User) (width 0.1))
  (gr_circle (center 112.316356 65.587611) (end 112.816356 65.587611) (layer Dwgs.User) (width 0.1))
  (gr_circle (center 109.776356 65.587611) (end 110.276356 65.587611) (layer Dwgs.User) (width 0.1))
  (gr_circle (center 107.236356 65.587611) (end 107.736356 65.587611) (layer Dwgs.User) (width 0.1))
  (gr_circle (center 104.696356 65.587611) (end 105.196356 65.587611) (layer Dwgs.User) (width 0.1))
  (gr_circle (center 102.156356 65.587611) (end 102.656356 65.587611) (layer Dwgs.User) (width 0.1))
  (gr_circle (center 99.616356 65.587611) (end 100.116356 65.587611) (layer Dwgs.User) (width 0.1))
  (gr_circle (center 97.076356 65.587611) (end 97.576356 65.587611) (layer Dwgs.User) (width 0.1))
  (gr_circle (center 94.536356 65.587611) (end 95.036356 65.587611) (layer Dwgs.User) (width 0.1))
  (gr_circle (center 91.996356 65.587611) (end 92.496356 65.587611) (layer Dwgs.User) (width 0.1))
  (gr_circle (center 89.456356 65.587611) (end 89.956356 65.587611) (layer Dwgs.User) (width 0.1))
  (gr_circle (center 86.916356 65.587611) (end 87.416356 65.587611) (layer Dwgs.User) (width 0.1))
  (gr_circle (center 140.046356 113.317611) (end 141.421356 113.317611) (layer Dwgs.User) (width 0.1))
  (gr_circle (center 140.046356 64.317611) (end 141.421356 64.317611) (layer Dwgs.User) (width 0.1))
  (gr_circle (center 82.046356 64.317611) (end 83.421356 64.317611) (layer Dwgs.User) (width 0.1))
  (gr_circle (center 82.046356 113.317611) (end 83.421356 113.317611) (layer Dwgs.User) (width 0.1))
  (gr_arc (start 81.546356 113.817611) (end 78.546356 113.817611) (angle -90) (layer Edge.Cuts) (width 0.1))
  (gr_line (start 81.546356 116.817611) (end 140.546356 116.817611) (layer Edge.Cuts) (width 0.1))
  (gr_arc (start 140.546356 113.817611) (end 140.546356 116.817611) (angle -89.9) (layer Edge.Cuts) (width 0.1))

  (segment (start 91.1725 73.66) (end 91.1725 71.12) (width 0.6) (layer F.Cu) (net 1))
  (segment (start 97.08 68.02) (end 97.08 65.59) (width 0.5) (layer F.Cu) (net 1))
  (segment (start 96.52 68.58) (end 97.08 68.02) (width 0.5) (layer F.Cu) (net 1))
  (segment (start 91.1725 71.12) (end 93.7125 68.58) (width 0.5) (layer F.Cu) (net 1))
  (segment (start 93.7125 68.58) (end 96.52 68.58) (width 0.5) (layer F.Cu) (net 1))
  (segment (start 129.54 71.23) (end 135.18 65.59) (width 0.6) (layer B.Cu) (net 1))
  (segment (start 129.54 76.2) (end 129.54 71.23) (width 0.6) (layer B.Cu) (net 1))
  (segment (start 138.43 76.2) (end 129.54 76.2) (width 0.6) (layer B.Cu) (net 1))
  (segment (start 119.7125 82.8825) (end 119.38 82.55) (width 0.6) (layer F.Cu) (net 1))
  (segment (start 119.7125 86.36) (end 119.7125 82.8825) (width 0.6) (layer F.Cu) (net 1))
  (segment (start 117.7775 65.9675) (end 117.4 65.59) (width 0.6) (layer F.Cu) (net 1))
  (segment (start 117.7775 69.85) (end 117.7775 65.9675) (width 0.6) (layer F.Cu) (net 1))
  (segment (start 119.7125 87.9625) (end 119.7125 86.36) (width 0.6) (layer F.Cu) (net 1))
  (segment (start 136.815 76.2) (end 134.62 78.395) (width 0.6) (layer F.Cu) (net 1))
  (segment (start 134.62 78.395) (end 134.62 81.28) (width 0.6) (layer F.Cu) (net 1))
  (segment (start 120.65 88.9) (end 119.7125 87.9625) (width 0.6) (layer F.Cu) (net 1))
  (segment (start 138.43 76.2) (end 136.815 76.2) (width 0.6) (layer F.Cu) (net 1))
  (segment (start 134.62 81.28) (end 127 88.9) (width 0.6) (layer F.Cu) (net 1))
  (segment (start 127 88.9) (end 120.65 88.9) (width 0.6) (layer F.Cu) (net 1))
  (segment (start 119.94 66.06) (end 119.94 65.59) (width 0.25) (layer B.Cu) (net 2) (tstamp 58E26B08) (status 30))
  (segment (start 119.94 63.05) (end 119.85 63.05) (width 0.15) (layer F.Cu) (net 3))
  (segment (start 95.52 73.54) (end 95.57 73.49) (width 0.5) (layer F.Cu) (net 4))
  (segment (start 95.52 76.52) (end 95.52 73.54) (width 0.5) (layer F.Cu) (net 4))
  (segment (start 93.2175 73.49) (end 93.0475 73.66) (width 0.5) (layer F.Cu) (net 4))
  (segment (start 95.57 73.49) (end 93.2175 73.49) (width 0.5) (layer F.Cu) (net 4))
  (segment (start 97.47 71.29) (end 96.52 71.29) (width 1) (layer F.Cu) (net 5))
  (segment (start 95.57 71.29) (end 96.52 71.29) (width 1) (layer F.Cu) (net 5))
  (segment (start 95.4 71.12) (end 95.57 71.29) (width 0.5) (layer F.Cu) (net 5))
  (segment (start 93.0475 71.12) (end 95.4 71.12) (width 0.5) (layer F.Cu) (net 5))
  (segment (start 83.82 83.4875) (end 84.1525 83.82) (width 0.5) (layer F.Cu) (net 6))
  (segment (start 83.82 80.01) (end 83.82 83.4875) (width 0.5) (layer F.Cu) (net 6))
  (segment (start 86.92 67.04) (end 86.92 65.59) (width 0.6) (layer F.Cu) (net 6))
  (segment (start 82.469999 78.659999) (end 82.469999 71.490001) (width 0.6) (layer F.Cu) (net 6))
  (segment (start 82.469999 71.490001) (end 86.92 67.04) (width 0.6) (layer F.Cu) (net 6))
  (segment (start 83.82 80.01) (end 82.469999 78.659999) (width 0.6) (layer F.Cu) (net 6))
  (segment (start 96.47 78.42) (end 95.52 78.42) (width 0.5) (layer F.Cu) (net 7))
  (segment (start 96.52 78.37) (end 96.47 78.42) (width 0.5) (layer F.Cu) (net 7))
  (segment (start 96.52 73.49) (end 96.52 78.37) (width 0.5) (layer F.Cu) (net 7))
  (segment (start 83.82 73.9925) (end 84.1525 73.66) (width 0.5) (layer F.Cu) (net 7))
  (segment (start 83.82 77.47) (end 83.82 73.9925) (width 0.5) (layer F.Cu) (net 7))
  (segment (start 95.52 79.42) (end 95.52 78.42) (width 0.6) (layer F.Cu) (net 7))
  (segment (start 84.1525 73.66) (end 84.1525 72.0575) (width 0.6) (layer F.Cu) (net 7))
  (segment (start 118.79 79.42) (end 95.52 79.42) (width 0.5) (layer F.Cu) (net 7))
  (segment (start 121.92 82.55) (end 118.79 79.42) (width 0.5) (layer F.Cu) (net 7))
  (segment (start 85.619999 64.350001) (end 85.619999 66.780001) (width 0.5) (layer F.Cu) (net 7))
  (segment (start 86.92 63.05) (end 85.619999 64.350001) (width 0.5) (layer F.Cu) (net 7))
  (segment (start 85.619999 66.780001) (end 81.28 71.12) (width 0.5) (layer F.Cu) (net 7))
  (segment (start 81.28 71.12) (end 81.28 85.09) (width 0.5) (layer F.Cu) (net 7))
  (segment (start 81.28 85.09) (end 82.55 86.36) (width 0.5) (layer F.Cu) (net 7))
  (segment (start 82.55 86.36) (end 87.63 86.36) (width 0.5) (layer F.Cu) (net 7))
  (segment (start 87.63 86.36) (end 88.9 85.09) (width 0.5) (layer F.Cu) (net 7))
  (segment (start 87.63 71.12) (end 85.09 71.12) (width 0.5) (layer F.Cu) (net 7))
  (segment (start 88.9 72.39) (end 87.63 71.12) (width 0.5) (layer F.Cu) (net 7))
  (segment (start 85.09 71.12) (end 84.1525 72.0575) (width 0.5) (layer F.Cu) (net 7))
  (segment (start 89.22 78.42) (end 88.9 78.74) (width 0.5) (layer F.Cu) (net 7))
  (segment (start 95.52 78.42) (end 89.22 78.42) (width 0.5) (layer F.Cu) (net 7))
  (segment (start 88.9 85.09) (end 88.9 78.74) (width 0.5) (layer F.Cu) (net 7))
  (segment (start 88.9 78.74) (end 88.9 72.39) (width 0.5) (layer F.Cu) (net 7))
  (segment (start 121.5875 82.8825) (end 121.92 82.55) (width 0.6) (layer F.Cu) (net 7))
  (segment (start 121.5875 86.36) (end 121.5875 82.8825) (width 0.6) (layer F.Cu) (net 7))
  (segment (start 124.46 86.36) (end 121.5875 86.36) (width 0.6) (layer F.Cu) (net 7))
  (segment (start 86.36 83.4875) (end 86.0275 83.82) (width 0.5) (layer F.Cu) (net 8))
  (segment (start 86.36 80.01) (end 86.36 83.4875) (width 0.5) (layer F.Cu) (net 8))
  (segment (start 97.52 73.54) (end 97.47 73.49) (width 0.5) (layer F.Cu) (net 9))
  (segment (start 97.52 77.47) (end 97.52 73.54) (width 0.5) (layer F.Cu) (net 9))
  (segment (start 86.0275 77.1375) (end 86.36 77.47) (width 0.5) (layer F.Cu) (net 9))
  (segment (start 86.0275 73.66) (end 86.0275 77.1375) (width 0.5) (layer F.Cu) (net 9))
  (segment (start 86.36 77.47) (end 100.33 77.47) (width 0.5) (layer B.Cu) (net 9))
  (via (at 100.33 77.47) (size 0.4) (drill 0.2) (layers F.Cu B.Cu) (net 9))
  (segment (start 100.33 77.47) (end 97.52 77.47) (width 0.6) (layer F.Cu) (net 9))
  (segment (start 121.92 73.9925) (end 123.5225 72.39) (width 0.6) (layer F.Cu) (net 10))
  (segment (start 121.92 74.93) (end 121.92 73.9925) (width 0.6) (layer F.Cu) (net 10))
  (segment (start 127 73.9925) (end 125.3975 72.39) (width 0.6) (layer F.Cu) (net 11))
  (segment (start 127 74.93) (end 127 73.9925) (width 0.6) (layer F.Cu) (net 11))
  (segment (start 126.335 86.36) (end 129.54 83.155) (width 0.6) (layer F.Cu) (net 12))
  (segment (start 129.54 80.01) (end 124.46 74.93) (width 0.6) (layer F.Cu) (net 12))
  (segment (start 129.54 83.155) (end 129.54 80.01) (width 0.6) (layer F.Cu) (net 12))
  (segment (start 116.84 73.055) (end 117.505 72.39) (width 0.6) (layer F.Cu) (net 13))
  (segment (start 116.84 74.93) (end 116.84 73.055) (width 0.6) (layer F.Cu) (net 13))
  (segment (start 119.38 74.93) (end 119.38 72.39) (width 0.6) (layer F.Cu) (net 14))
  (segment (start 115.9025 69.85) (end 114.3 69.85) (width 0.6) (layer F.Cu) (net 15))
  (segment (start 114.3 69.85) (end 114.3 74.93) (width 0.6) (layer F.Cu) (net 15))
  (segment (start 95.829999 66.190001) (end 99.489998 69.85) (width 0.4) (layer B.Cu) (net 19))
  (segment (start 94.54 63.05) (end 95.829999 64.339999) (width 0.4) (layer B.Cu) (net 19))
  (segment (start 95.829999 64.339999) (end 95.829999 66.190001) (width 0.4) (layer B.Cu) (net 19))
  (segment (start 104.14 69.85) (end 109.22 74.93) (width 0.4) (layer B.Cu) (net 19))
  (segment (start 99.489998 69.85) (end 104.14 69.85) (width 0.4) (layer B.Cu) (net 19))
  (segment (start 98.369999 66.190001) (end 100.759998 68.58) (width 0.4) (layer B.Cu) (net 20))
  (segment (start 97.08 63.05) (end 98.369999 64.339999) (width 0.4) (layer B.Cu) (net 20))
  (segment (start 98.369999 64.339999) (end 98.369999 66.190001) (width 0.4) (layer B.Cu) (net 20))
  (segment (start 105.41 68.58) (end 111.76 74.93) (width 0.4) (layer B.Cu) (net 20))
  (segment (start 100.759998 68.58) (end 105.41 68.58) (width 0.4) (layer B.Cu) (net 20))
  (segment (start 138.43 78.74) (end 135.89 78.74) (width 0.4) (layer B.Cu) (net 43))
  (segment (start 135.89 78.74) (end 134.62 77.47) (width 0.4) (layer B.Cu) (net 43))
  (segment (start 109.22 77.47) (end 106.68 74.93) (width 0.4) (layer B.Cu) (net 43))
  (segment (start 134.62 77.47) (end 109.22 77.47) (width 0.4) (layer B.Cu) (net 43))
  (segment (start 138.43 82.545) (end 132.075 88.9) (width 0.4) (layer B.Cu) (net 48))
  (segment (start 138.43 81.28) (end 138.43 82.545) (width 0.4) (layer B.Cu) (net 48))
  (segment (start 113.03 88.9) (end 106.68 82.55) (width 0.4) (layer B.Cu) (net 48))
  (segment (start 132.075 88.9) (end 113.03 88.9) (width 0.4) (layer B.Cu) (net 48))

  (zone (net 1) (net_name GND) (layer In2.Cu) (tstamp 58E2254F) (hatch edge 0.508)
    (connect_pads (clearance 0.4))
    (min_thickness 0.2)
    (fill yes (arc_segments 16) (thermal_gap 0.25) (thermal_bridge_width 0.508))
    (polygon
      (pts
        (xy 144.1 128.3) (xy 77.6 128.3) (xy 77.6 54) (xy 144.1 54)
      )
    )
    (filled_polygon
      (pts
        (xy 138.524232 61.494197) (xy 138.000119 61.844398) (xy 137.554398 62.290119) (xy 137.204197 62.814232) (xy 136.962975 63.396595)
        (xy 136.84 64.014828) (xy 136.84 64.645172) (xy 136.962975 65.263405) (xy 137.204197 65.845768) (xy 137.554398 66.369881)
        (xy 138.000119 66.815602) (xy 138.524232 67.165803) (xy 139.106595 67.407025) (xy 139.724828 67.53) (xy 140.355172 67.53)
        (xy 140.973405 67.407025) (xy 141.555768 67.165803) (xy 142.079881 66.815602) (xy 142.525602 66.369881) (xy 142.875803 65.845768)
        (xy 142.996357 65.554724) (xy 142.996356 112.109416) (xy 142.865803 111.794232) (xy 142.515602 111.270119) (xy 142.069881 110.824398)
        (xy 141.545768 110.474197) (xy 140.963405 110.232975) (xy 140.345172 110.11) (xy 139.714828 110.11) (xy 139.096595 110.232975)
        (xy 138.514232 110.474197) (xy 137.990119 110.824398) (xy 137.544398 111.270119) (xy 137.194197 111.794232) (xy 136.952975 112.376595)
        (xy 136.83 112.994828) (xy 136.83 113.625172) (xy 136.952975 114.243405) (xy 137.194197 114.825768) (xy 137.544398 115.349881)
        (xy 137.990119 115.795602) (xy 138.514232 116.145803) (xy 138.808303 116.267611) (xy 83.285839 116.267611) (xy 83.555768 116.155803)
        (xy 84.079881 115.805602) (xy 84.525602 115.359881) (xy 84.875803 114.835768) (xy 85.117025 114.253405) (xy 85.24 113.635172)
        (xy 85.24 113.004828) (xy 85.117025 112.386595) (xy 84.875803 111.804232) (xy 84.525602 111.280119) (xy 84.079881 110.834398)
        (xy 83.555768 110.484197) (xy 82.973405 110.242975) (xy 82.355172 110.12) (xy 81.724828 110.12) (xy 81.106595 110.242975)
        (xy 80.524232 110.484197) (xy 80.000119 110.834398) (xy 79.554398 111.280119) (xy 79.204197 111.804232) (xy 79.096356 112.064584)
        (xy 79.096356 71.12) (xy 90.083468 71.12) (xy 90.109533 71.384646) (xy 90.186728 71.639122) (xy 90.312085 71.873649)
        (xy 90.480787 72.079213) (xy 90.686351 72.247915) (xy 90.920878 72.373272) (xy 90.976022 72.39) (xy 90.920878 72.406728)
        (xy 90.686351 72.532085) (xy 90.480787 72.700787) (xy 90.312085 72.906351) (xy 90.186728 73.140878) (xy 90.109533 73.395354)
        (xy 90.083468 73.66) (xy 90.109533 73.924646) (xy 90.186728 74.179122) (xy 90.312085 74.413649) (xy 90.480787 74.619213)
        (xy 90.686351 74.787915) (xy 90.920878 74.913272) (xy 91.175354 74.990467) (xy 91.373679 75.01) (xy 91.506321 75.01)
        (xy 91.704646 74.990467) (xy 91.959122 74.913272) (xy 92.193649 74.787915) (xy 92.399213 74.619213) (xy 92.567915 74.413649)
        (xy 92.627581 74.302022) (xy 92.627581 74.51) (xy 92.637235 74.608017) (xy 92.665825 74.702267) (xy 92.712254 74.789129)
        (xy 92.774736 74.865264) (xy 92.850871 74.927746) (xy 92.937733 74.974175) (xy 93.031983 75.002765) (xy 93.13 75.012419)
        (xy 94.83 75.012419) (xy 94.928017 75.002765) (xy 95.022267 74.974175) (xy 95.067494 74.95) (xy 112.498306 74.95)
        (xy 112.505064 75.018612) (xy 112.525077 75.084587) (xy 112.557577 75.145391) (xy 112.601315 75.198685) (xy 112.654609 75.242423)
        (xy 112.715413 75.274923) (xy 112.781388 75.294936) (xy 112.85 75.301694) (xy 113.4585 75.3) (xy 113.546 75.2125)
        (xy 113.546 74.254) (xy 112.5875 74.254) (xy 112.5 74.3415) (xy 112.498306 74.95) (xy 95.067494 74.95)
        (xy 95.109129 74.927746) (xy 95.185264 74.865264) (xy 95.247746 74.789129) (xy 95.294175 74.702267) (xy 95.322765 74.608017)
        (xy 95.332419 74.51) (xy 95.332419 73.25) (xy 112.498306 73.25) (xy 112.5 73.8585) (xy 112.5875 73.946)
        (xy 113.546 73.946) (xy 113.546 72.9875) (xy 113.854 72.9875) (xy 113.854 73.946) (xy 113.874 73.946)
        (xy 113.874 74.254) (xy 113.854 74.254) (xy 113.854 75.2125) (xy 113.9415 75.3) (xy 114.55 75.301694)
        (xy 114.618612 75.294936) (xy 114.684587 75.274923) (xy 114.745391 75.242423) (xy 114.798685 75.198685) (xy 114.842423 75.145391)
        (xy 114.874923 75.084587) (xy 114.894936 75.018612) (xy 114.901694 74.95) (xy 114.9 74.3415) (xy 114.812502 74.254002)
        (xy 114.898636 74.254002) (xy 114.909533 74.364646) (xy 114.986728 74.619122) (xy 115.112085 74.853649) (xy 115.280787 75.059213)
        (xy 115.486351 75.227915) (xy 115.720878 75.353272) (xy 115.975354 75.430467) (xy 116.173679 75.45) (xy 116.306321 75.45)
        (xy 116.504646 75.430467) (xy 116.759122 75.353272) (xy 116.993649 75.227915) (xy 117.199213 75.059213) (xy 117.367915 74.853649)
        (xy 117.493272 74.619122) (xy 117.570467 74.364646) (xy 117.596532 74.1) (xy 117.570467 73.835354) (xy 117.493272 73.580878)
        (xy 117.367915 73.346351) (xy 117.199213 73.140787) (xy 116.993649 72.972085) (xy 116.759122 72.846728) (xy 116.504646 72.769533)
        (xy 116.306321 72.75) (xy 116.173679 72.75) (xy 115.975354 72.769533) (xy 115.720878 72.846728) (xy 115.486351 72.972085)
        (xy 115.280787 73.140787) (xy 115.112085 73.346351) (xy 114.986728 73.580878) (xy 114.909533 73.835354) (xy 114.898636 73.945998)
        (xy 114.812502 73.945998) (xy 114.9 73.8585) (xy 114.901694 73.25) (xy 114.894936 73.181388) (xy 114.874923 73.115413)
        (xy 114.842423 73.054609) (xy 114.798685 73.001315) (xy 114.745391 72.957577) (xy 114.684587 72.925077) (xy 114.618612 72.905064)
        (xy 114.55 72.898306) (xy 113.9415 72.9) (xy 113.854 72.9875) (xy 113.546 72.9875) (xy 113.4585 72.9)
        (xy 112.85 72.898306) (xy 112.781388 72.905064) (xy 112.715413 72.925077) (xy 112.654609 72.957577) (xy 112.601315 73.001315)
        (xy 112.557577 73.054609) (xy 112.525077 73.115413) (xy 112.505064 73.181388) (xy 112.498306 73.25) (xy 95.332419 73.25)
        (xy 95.332419 72.81) (xy 95.322765 72.711983) (xy 95.294175 72.617733) (xy 95.247746 72.530871) (xy 95.185264 72.454736)
        (xy 95.109129 72.392254) (xy 95.022267 72.345825) (xy 94.928017 72.317235) (xy 94.83 72.307581) (xy 94.622022 72.307581)
        (xy 94.733649 72.247915) (xy 94.939213 72.079213) (xy 95.107915 71.873649) (xy 95.233272 71.639122) (xy 95.310467 71.384646)
        (xy 95.336532 71.12) (xy 95.310467 70.855354) (xy 95.233272 70.600878) (xy 95.107915 70.366351) (xy 94.939213 70.160787)
        (xy 94.733649 69.992085) (xy 94.499122 69.866728) (xy 94.244646 69.789533) (xy 94.046321 69.77) (xy 93.913679 69.77)
        (xy 93.715354 69.789533) (xy 93.460878 69.866728) (xy 93.226351 69.992085) (xy 93.020787 70.160787) (xy 92.852085 70.366351)
        (xy 92.726728 70.600878) (xy 92.71 70.656022) (xy 92.693272 70.600878) (xy 92.567915 70.366351) (xy 92.399213 70.160787)
        (xy 92.193649 69.992085) (xy 91.959122 69.866728) (xy 91.704646 69.789533) (xy 91.506321 69.77) (xy 91.373679 69.77)
        (xy 91.175354 69.789533) (xy 90.920878 69.866728) (xy 90.686351 69.992085) (xy 90.480787 70.160787) (xy 90.312085 70.366351)
        (xy 90.186728 70.600878) (xy 90.109533 70.855354) (xy 90.083468 71.12) (xy 79.096356 71.12) (xy 79.096356 65.565416)
        (xy 79.204197 65.825768) (xy 79.554398 66.349881) (xy 80.000119 66.795602) (xy 80.524232 67.145803) (xy 81.106595 67.387025)
        (xy 81.724828 67.51) (xy 82.355172 67.51) (xy 82.973405 67.387025) (xy 83.555768 67.145803) (xy 84.079881 66.795602)
        (xy 84.525602 66.349881) (xy 84.875803 65.825768) (xy 85.117025 65.243405) (xy 85.24 64.625172) (xy 85.24 63.994828)
        (xy 85.117025 63.376595) (xy 84.981746 63.05) (xy 85.563468 63.05) (xy 85.589533 63.314646) (xy 85.666728 63.569122)
        (xy 85.792085 63.803649) (xy 85.960787 64.009213) (xy 86.166351 64.177915) (xy 86.277978 64.237581) (xy 86.07 64.237581)
        (xy 85.971983 64.247235) (xy 85.877733 64.275825) (xy 85.790871 64.322254) (xy 85.714736 64.384736) (xy 85.652254 64.460871)
        (xy 85.605825 64.547733) (xy 85.577235 64.641983) (xy 85.567581 64.74) (xy 85.567581 66.44) (xy 85.577235 66.538017)
        (xy 85.605825 66.632267) (xy 85.652254 66.719129) (xy 85.714736 66.795264) (xy 85.790871 66.857746) (xy 85.877733 66.904175)
        (xy 85.971983 66.932765) (xy 86.07 66.942419) (xy 87.77 66.942419) (xy 87.868017 66.932765) (xy 87.962267 66.904175)
        (xy 88.049129 66.857746) (xy 88.125264 66.795264) (xy 88.187746 66.719129) (xy 88.234175 66.632267) (xy 88.262765 66.538017)
        (xy 88.272419 66.44) (xy 88.272419 66.232022) (xy 88.332085 66.343649) (xy 88.500787 66.549213) (xy 88.706351 66.717915)
        (xy 88.940878 66.843272) (xy 89.195354 66.920467) (xy 89.393679 66.94) (xy 89.526321 66.94) (xy 89.724646 66.920467)
        (xy 89.979122 66.843272) (xy 90.213649 66.717915) (xy 90.419213 66.549213) (xy 90.587915 66.343649) (xy 90.713272 66.109122)
        (xy 90.73 66.053978) (xy 90.746728 66.109122) (xy 90.872085 66.343649) (xy 91.040787 66.549213) (xy 91.246351 66.717915)
        (xy 91.480878 66.843272) (xy 91.735354 66.920467) (xy 91.933679 66.94) (xy 92.066321 66.94) (xy 92.264646 66.920467)
        (xy 92.519122 66.843272) (xy 92.753649 66.717915) (xy 92.959213 66.549213) (xy 93.127915 66.343649) (xy 93.253272 66.109122)
        (xy 93.27 66.053978) (xy 93.286728 66.109122) (xy 93.412085 66.343649) (xy 93.580787 66.549213) (xy 93.786351 66.717915)
        (xy 94.020878 66.843272) (xy 94.275354 66.920467) (xy 94.473679 66.94) (xy 94.606321 66.94) (xy 94.804646 66.920467)
        (xy 95.059122 66.843272) (xy 95.293649 66.717915) (xy 95.499213 66.549213) (xy 95.667915 66.343649) (xy 95.793272 66.109122)
        (xy 95.870467 65.854646) (xy 95.881364 65.744002) (xy 95.977414 65.744002) (xy 95.928658 65.928274) (xy 96.016775 66.14639)
        (xy 96.145751 66.343124) (xy 96.31063 66.510916) (xy 96.505075 66.643317) (xy 96.721614 66.73524) (xy 96.741727 66.741334)
        (xy 96.926 66.69179) (xy 96.926 65.744) (xy 96.906 65.744) (xy 96.906 65.436) (xy 96.926 65.436)
        (xy 96.926 65.416) (xy 97.234 65.416) (xy 97.234 65.436) (xy 97.254 65.436) (xy 97.254 65.744)
        (xy 97.234 65.744) (xy 97.234 66.69179) (xy 97.418273 66.741334) (xy 97.438386 66.73524) (xy 97.654925 66.643317)
        (xy 97.84937 66.510916) (xy 98.014249 66.343124) (xy 98.143225 66.14639) (xy 98.231342 65.928274) (xy 98.182586 65.744002)
        (xy 98.278636 65.744002) (xy 98.289533 65.854646) (xy 98.366728 66.109122) (xy 98.492085 66.343649) (xy 98.660787 66.549213)
        (xy 98.866351 66.717915) (xy 99.100878 66.843272) (xy 99.355354 66.920467) (xy 99.553679 66.94) (xy 99.686321 66.94)
        (xy 99.884646 66.920467) (xy 100.139122 66.843272) (xy 100.373649 66.717915) (xy 100.579213 66.549213) (xy 100.747915 66.343649)
        (xy 100.873272 66.109122) (xy 100.89 66.053978) (xy 100.906728 66.109122) (xy 101.032085 66.343649) (xy 101.200787 66.549213)
        (xy 101.406351 66.717915) (xy 101.640878 66.843272) (xy 101.895354 66.920467) (xy 102.093679 66.94) (xy 102.226321 66.94)
        (xy 102.424646 66.920467) (xy 102.679122 66.843272) (xy 102.913649 66.717915) (xy 103.119213 66.549213) (xy 103.287915 66.343649)
        (xy 103.413272 66.109122) (xy 103.43 66.053978) (xy 103.446728 66.109122) (xy 103.572085 66.343649) (xy 103.740787 66.549213)
        (xy 103.946351 66.717915) (xy 104.180878 66.843272) (xy 104.435354 66.920467) (xy 104.633679 66.94) (xy 104.766321 66.94)
        (xy 104.964646 66.920467) (xy 105.219122 66.843272) (xy 105.453649 66.717915) (xy 105.659213 66.549213) (xy 105.827915 66.343649)
        (xy 105.953272 66.109122) (xy 105.97 66.053978) (xy 105.986728 66.109122) (xy 106.112085 66.343649) (xy 106.280787 66.549213)
        (xy 106.486351 66.717915) (xy 106.720878 66.843272) (xy 106.975354 66.920467) (xy 107.173679 66.94) (xy 107.306321 66.94)
        (xy 107.504646 66.920467) (xy 107.759122 66.843272) (xy 107.993649 66.717915) (xy 108.199213 66.549213) (xy 108.367915 66.343649)
        (xy 108.493272 66.109122) (xy 108.51 66.053978) (xy 108.526728 66.109122) (xy 108.652085 66.343649) (xy 108.820787 66.549213)
        (xy 109.026351 66.717915) (xy 109.260878 66.843272) (xy 109.515354 66.920467) (xy 109.713679 66.94) (xy 109.846321 66.94)
        (xy 110.044646 66.920467) (xy 110.299122 66.843272) (xy 110.533649 66.717915) (xy 110.739213 66.549213) (xy 110.907915 66.343649)
        (xy 111.033272 66.109122) (xy 111.05 66.053978) (xy 111.066728 66.109122) (xy 111.192085 66.343649) (xy 111.360787 66.549213)
        (xy 111.566351 66.717915) (xy 111.800878 66.843272) (xy 112.055354 66.920467) (xy 112.253679 66.94) (xy 112.386321 66.94)
        (xy 112.584646 66.920467) (xy 112.839122 66.843272) (xy 113.073649 66.717915) (xy 113.279213 66.549213) (xy 113.447915 66.343649)
        (xy 113.573272 66.109122) (xy 113.59 66.053978) (xy 113.606728 66.109122) (xy 113.732085 66.343649) (xy 113.900787 66.549213)
        (xy 114.106351 66.717915) (xy 114.340878 66.843272) (xy 114.595354 66.920467) (xy 114.793679 66.94) (xy 114.926321 66.94)
        (xy 115.124646 66.920467) (xy 115.379122 66.843272) (xy 115.613649 66.717915) (xy 115.819213 66.549213) (xy 115.987915 66.343649)
        (xy 116.113272 66.109122) (xy 116.190467 65.854646) (xy 116.201364 65.744002) (xy 116.297414 65.744002) (xy 116.248658 65.928274)
        (xy 116.336775 66.14639) (xy 116.465751 66.343124) (xy 116.63063 66.510916) (xy 116.825075 66.643317) (xy 117.041614 66.73524)
        (xy 117.061727 66.741334) (xy 117.246 66.69179) (xy 117.246 65.744) (xy 117.226 65.744) (xy 117.226 65.436)
        (xy 117.246 65.436) (xy 117.246 65.416) (xy 117.554 65.416) (xy 117.554 65.436) (xy 117.574 65.436)
        (xy 117.574 65.744) (xy 117.554 65.744) (xy 117.554 66.69179) (xy 117.738273 66.741334) (xy 117.758386 66.73524)
        (xy 117.974925 66.643317) (xy 118.16937 66.510916) (xy 118.334249 66.343124) (xy 118.463225 66.14639) (xy 118.551342 65.928274)
        (xy 118.502586 65.744002) (xy 118.598636 65.744002) (xy 118.609533 65.854646) (xy 118.686728 66.109122) (xy 118.812085 66.343649)
        (xy 118.980787 66.549213) (xy 119.186351 66.717915) (xy 119.420878 66.843272) (xy 119.675354 66.920467) (xy 119.873679 66.94)
        (xy 120.006321 66.94) (xy 120.204646 66.920467) (xy 120.459122 66.843272) (xy 120.693649 66.717915) (xy 120.899213 66.549213)
        (xy 121.067915 66.343649) (xy 121.193272 66.109122) (xy 121.21 66.053978) (xy 121.226728 66.109122) (xy 121.352085 66.343649)
        (xy 121.520787 66.549213) (xy 121.726351 66.717915) (xy 121.960878 66.843272) (xy 122.215354 66.920467) (xy 122.413679 66.94)
        (xy 122.546321 66.94) (xy 122.744646 66.920467) (xy 122.999122 66.843272) (xy 123.233649 66.717915) (xy 123.439213 66.549213)
        (xy 123.607915 66.343649) (xy 123.733272 66.109122) (xy 123.75 66.053978) (xy 123.766728 66.109122) (xy 123.892085 66.343649)
        (xy 124.060787 66.549213) (xy 124.266351 66.717915) (xy 124.500878 66.843272) (xy 124.755354 66.920467) (xy 124.953679 66.94)
        (xy 125.086321 66.94) (xy 125.284646 66.920467) (xy 125.539122 66.843272) (xy 125.773649 66.717915) (xy 125.979213 66.549213)
        (xy 126.147915 66.343649) (xy 126.273272 66.109122) (xy 126.29 66.053978) (xy 126.306728 66.109122) (xy 126.432085 66.343649)
        (xy 126.600787 66.549213) (xy 126.806351 66.717915) (xy 127.040878 66.843272) (xy 127.295354 66.920467) (xy 127.493679 66.94)
        (xy 127.626321 66.94) (xy 127.824646 66.920467) (xy 128.079122 66.843272) (xy 128.313649 66.717915) (xy 128.519213 66.549213)
        (xy 128.687915 66.343649) (xy 128.813272 66.109122) (xy 128.83 66.053978) (xy 128.846728 66.109122) (xy 128.972085 66.343649)
        (xy 129.140787 66.549213) (xy 129.346351 66.717915) (xy 129.580878 66.843272) (xy 129.835354 66.920467) (xy 130.033679 66.94)
        (xy 130.166321 66.94) (xy 130.364646 66.920467) (xy 130.619122 66.843272) (xy 130.853649 66.717915) (xy 131.059213 66.549213)
        (xy 131.227915 66.343649) (xy 131.353272 66.109122) (xy 131.37 66.053978) (xy 131.386728 66.109122) (xy 131.512085 66.343649)
        (xy 131.680787 66.549213) (xy 131.886351 66.717915) (xy 132.120878 66.843272) (xy 132.375354 66.920467) (xy 132.573679 66.94)
        (xy 132.706321 66.94) (xy 132.904646 66.920467) (xy 133.159122 66.843272) (xy 133.393649 66.717915) (xy 133.599213 66.549213)
        (xy 133.767915 66.343649) (xy 133.893272 66.109122) (xy 133.970467 65.854646) (xy 133.981364 65.744002) (xy 134.077414 65.744002)
        (xy 134.028658 65.928274) (xy 134.116775 66.14639) (xy 134.245751 66.343124) (xy 134.41063 66.510916) (xy 134.605075 66.643317)
        (xy 134.821614 66.73524) (xy 134.841727 66.741334) (xy 135.026 66.69179) (xy 135.026 65.744) (xy 135.334 65.744)
        (xy 135.334 66.69179) (xy 135.518273 66.741334) (xy 135.538386 66.73524) (xy 135.754925 66.643317) (xy 135.94937 66.510916)
        (xy 136.114249 66.343124) (xy 136.243225 66.14639) (xy 136.331342 65.928274) (xy 136.282585 65.744) (xy 135.334 65.744)
        (xy 135.026 65.744) (xy 135.006 65.744) (xy 135.006 65.436) (xy 135.026 65.436) (xy 135.026 65.416)
        (xy 135.334 65.416) (xy 135.334 65.436) (xy 136.282585 65.436) (xy 136.331342 65.251726) (xy 136.243225 65.03361)
        (xy 136.114249 64.836876) (xy 135.94937 64.669084) (xy 135.754925 64.536683) (xy 135.538386 64.44476) (xy 135.518273 64.438666)
        (xy 135.334002 64.488209) (xy 135.334002 64.391364) (xy 135.444646 64.380467) (xy 135.699122 64.303272) (xy 135.933649 64.177915)
        (xy 136.139213 64.009213) (xy 136.307915 63.803649) (xy 136.433272 63.569122) (xy 136.510467 63.314646) (xy 136.536532 63.05)
        (xy 136.510467 62.785354) (xy 136.433272 62.530878) (xy 136.307915 62.296351) (xy 136.139213 62.090787) (xy 135.933649 61.922085)
        (xy 135.699122 61.796728) (xy 135.444646 61.719533) (xy 135.246321 61.7) (xy 135.113679 61.7) (xy 134.915354 61.719533)
        (xy 134.660878 61.796728) (xy 134.426351 61.922085) (xy 134.220787 62.090787) (xy 134.052085 62.296351) (xy 133.926728 62.530878)
        (xy 133.91 62.586022) (xy 133.893272 62.530878) (xy 133.767915 62.296351) (xy 133.599213 62.090787) (xy 133.393649 61.922085)
        (xy 133.159122 61.796728) (xy 132.904646 61.719533) (xy 132.706321 61.7) (xy 132.573679 61.7) (xy 132.375354 61.719533)
        (xy 132.120878 61.796728) (xy 131.886351 61.922085) (xy 131.680787 62.090787) (xy 131.512085 62.296351) (xy 131.386728 62.530878)
        (xy 131.37 62.586022) (xy 131.353272 62.530878) (xy 131.227915 62.296351) (xy 131.059213 62.090787) (xy 130.853649 61.922085)
        (xy 130.619122 61.796728) (xy 130.364646 61.719533) (xy 130.166321 61.7) (xy 130.033679 61.7) (xy 129.835354 61.719533)
        (xy 129.580878 61.796728) (xy 129.346351 61.922085) (xy 129.140787 62.090787) (xy 128.972085 62.296351) (xy 128.846728 62.530878)
        (xy 128.769533 62.785354) (xy 128.758636 62.895998) (xy 128.662586 62.895998) (xy 128.711342 62.711726) (xy 128.623225 62.49361)
        (xy 128.494249 62.296876) (xy 128.32937 62.129084) (xy 128.134925 61.996683) (xy 127.918386 61.90476) (xy 127.898273 61.898666)
        (xy 127.714 61.94821) (xy 127.714 62.896) (xy 127.734 62.896) (xy 127.734 63.204) (xy 127.714 63.204)
        (xy 127.714 63.224) (xy 127.406 63.224) (xy 127.406 63.204) (xy 127.386 63.204) (xy 127.386 62.896)
        (xy 127.406 62.896) (xy 127.406 61.94821) (xy 127.221727 61.898666) (xy 127.201614 61.90476) (xy 126.985075 61.996683)
        (xy 126.79063 62.129084) (xy 126.625751 62.296876) (xy 126.496775 62.49361) (xy 126.408658 62.711726) (xy 126.457414 62.895998)
        (xy 126.361364 62.895998) (xy 126.350467 62.785354) (xy 126.273272 62.530878) (xy 126.147915 62.296351) (xy 125.979213 62.090787)
        (xy 125.773649 61.922085) (xy 125.539122 61.796728) (xy 125.284646 61.719533) (xy 125.086321 61.7) (xy 124.953679 61.7)
        (xy 124.755354 61.719533) (xy 124.500878 61.796728) (xy 124.266351 61.922085) (xy 124.060787 62.090787) (xy 123.892085 62.296351)
        (xy 123.766728 62.530878) (xy 123.689533 62.785354) (xy 123.678636 62.895998) (xy 123.582586 62.895998) (xy 123.631342 62.711726)
        (xy 123.543225 62.49361) (xy 123.414249 62.296876) (xy 123.24937 62.129084) (xy 123.054925 61.996683) (xy 122.838386 61.90476)
        (xy 122.818273 61.898666) (xy 122.634 61.94821) (xy 122.634 62.896) (xy 122.654 62.896) (xy 122.654 63.204)
        (xy 122.634 63.204) (xy 122.634 63.224) (xy 122.326 63.224) (xy 122.326 63.204) (xy 122.306 63.204)
        (xy 122.306 62.896) (xy 122.326 62.896) (xy 122.326 61.94821) (xy 122.141727 61.898666) (xy 122.121614 61.90476)
        (xy 121.905075 61.996683) (xy 121.71063 62.129084) (xy 121.545751 62.296876) (xy 121.416775 62.49361) (xy 121.328658 62.711726)
        (xy 121.377414 62.895998) (xy 121.281364 62.895998) (xy 121.270467 62.785354) (xy 121.193272 62.530878) (xy 121.067915 62.296351)
        (xy 120.899213 62.090787) (xy 120.693649 61.922085) (xy 120.459122 61.796728) (xy 120.204646 61.719533) (xy 120.006321 61.7)
        (xy 119.873679 61.7) (xy 119.675354 61.719533) (xy 119.420878 61.796728) (xy 119.186351 61.922085) (xy 118.980787 62.090787)
        (xy 118.812085 62.296351) (xy 118.686728 62.530878) (xy 118.67 62.586022) (xy 118.653272 62.530878) (xy 118.527915 62.296351)
        (xy 118.359213 62.090787) (xy 118.153649 61.922085) (xy 117.919122 61.796728) (xy 117.664646 61.719533) (xy 117.466321 61.7)
        (xy 117.333679 61.7) (xy 117.135354 61.719533) (xy 116.880878 61.796728) (xy 116.646351 61.922085) (xy 116.440787 62.090787)
        (xy 116.272085 62.296351) (xy 116.146728 62.530878) (xy 116.13 62.586022) (xy 116.113272 62.530878) (xy 115.987915 62.296351)
        (xy 115.819213 62.090787) (xy 115.613649 61.922085) (xy 115.379122 61.796728) (xy 115.124646 61.719533) (xy 114.926321 61.7)
        (xy 114.793679 61.7) (xy 114.595354 61.719533) (xy 114.340878 61.796728) (xy 114.106351 61.922085) (xy 113.900787 62.090787)
        (xy 113.732085 62.296351) (xy 113.606728 62.530878) (xy 113.59 62.586022) (xy 113.573272 62.530878) (xy 113.447915 62.296351)
        (xy 113.279213 62.090787) (xy 113.073649 61.922085) (xy 112.839122 61.796728) (xy 112.584646 61.719533) (xy 112.386321 61.7)
        (xy 112.253679 61.7) (xy 112.055354 61.719533) (xy 111.800878 61.796728) (xy 111.566351 61.922085) (xy 111.360787 62.090787)
        (xy 111.192085 62.296351) (xy 111.066728 62.530878) (xy 110.989533 62.785354) (xy 110.978636 62.895998) (xy 110.882586 62.895998)
        (xy 110.931342 62.711726) (xy 110.843225 62.49361) (xy 110.714249 62.296876) (xy 110.54937 62.129084) (xy 110.354925 61.996683)
        (xy 110.138386 61.90476) (xy 110.118273 61.898666) (xy 109.934 61.94821) (xy 109.934 62.896) (xy 109.954 62.896)
        (xy 109.954 63.204) (xy 109.934 63.204) (xy 109.934 63.224) (xy 109.626 63.224) (xy 109.626 63.204)
        (xy 109.606 63.204) (xy 109.606 62.896) (xy 109.626 62.896) (xy 109.626 61.94821) (xy 109.441727 61.898666)
        (xy 109.421614 61.90476) (xy 109.205075 61.996683) (xy 109.01063 62.129084) (xy 108.845751 62.296876) (xy 108.716775 62.49361)
        (xy 108.628658 62.711726) (xy 108.677414 62.895998) (xy 108.581364 62.895998) (xy 108.570467 62.785354) (xy 108.493272 62.530878)
        (xy 108.367915 62.296351) (xy 108.199213 62.090787) (xy 107.993649 61.922085) (xy 107.759122 61.796728) (xy 107.504646 61.719533)
        (xy 107.306321 61.7) (xy 107.173679 61.7) (xy 106.975354 61.719533) (xy 106.720878 61.796728) (xy 106.486351 61.922085)
        (xy 106.280787 62.090787) (xy 106.112085 62.296351) (xy 105.986728 62.530878) (xy 105.97 62.586022) (xy 105.953272 62.530878)
        (xy 105.827915 62.296351) (xy 105.659213 62.090787) (xy 105.453649 61.922085) (xy 105.219122 61.796728) (xy 104.964646 61.719533)
        (xy 104.766321 61.7) (xy 104.633679 61.7) (xy 104.435354 61.719533) (xy 104.180878 61.796728) (xy 103.946351 61.922085)
        (xy 103.740787 62.090787) (xy 103.572085 62.296351) (xy 103.446728 62.530878) (xy 103.369533 62.785354) (xy 103.358636 62.895998)
        (xy 103.262586 62.895998) (xy 103.311342 62.711726) (xy 103.223225 62.49361) (xy 103.094249 62.296876) (xy 102.92937 62.129084)
        (xy 102.734925 61.996683) (xy 102.518386 61.90476) (xy 102.498273 61.898666) (xy 102.314 61.94821) (xy 102.314 62.896)
        (xy 102.334 62.896) (xy 102.334 63.204) (xy 102.314 63.204) (xy 102.314 63.224) (xy 102.006 63.224)
        (xy 102.006 63.204) (xy 101.986 63.204) (xy 101.986 62.896) (xy 102.006 62.896) (xy 102.006 61.94821)
        (xy 101.821727 61.898666) (xy 101.801614 61.90476) (xy 101.585075 61.996683) (xy 101.39063 62.129084) (xy 101.225751 62.296876)
        (xy 101.096775 62.49361) (xy 101.008658 62.711726) (xy 101.057414 62.895998) (xy 100.961364 62.895998) (xy 100.950467 62.785354)
        (xy 100.873272 62.530878) (xy 100.747915 62.296351) (xy 100.579213 62.090787) (xy 100.373649 61.922085) (xy 100.139122 61.796728)
        (xy 99.884646 61.719533) (xy 99.686321 61.7) (xy 99.553679 61.7) (xy 99.355354 61.719533) (xy 99.100878 61.796728)
        (xy 98.866351 61.922085) (xy 98.660787 62.090787) (xy 98.492085 62.296351) (xy 98.366728 62.530878) (xy 98.35 62.586022)
        (xy 98.333272 62.530878) (xy 98.207915 62.296351) (xy 98.039213 62.090787) (xy 97.833649 61.922085) (xy 97.599122 61.796728)
        (xy 97.344646 61.719533) (xy 97.146321 61.7) (xy 97.013679 61.7) (xy 96.815354 61.719533) (xy 96.560878 61.796728)
        (xy 96.326351 61.922085) (xy 96.120787 62.090787) (xy 95.952085 62.296351) (xy 95.826728 62.530878) (xy 95.81 62.586022)
        (xy 95.793272 62.530878) (xy 95.667915 62.296351) (xy 95.499213 62.090787) (xy 95.293649 61.922085) (xy 95.059122 61.796728)
        (xy 94.804646 61.719533) (xy 94.606321 61.7) (xy 94.473679 61.7) (xy 94.275354 61.719533) (xy 94.020878 61.796728)
        (xy 93.786351 61.922085) (xy 93.580787 62.090787) (xy 93.412085 62.296351) (xy 93.286728 62.530878) (xy 93.209533 62.785354)
        (xy 93.198636 62.895998) (xy 93.102586 62.895998) (xy 93.151342 62.711726) (xy 93.063225 62.49361) (xy 92.934249 62.296876)
        (xy 92.76937 62.129084) (xy 92.574925 61.996683) (xy 92.358386 61.90476) (xy 92.338273 61.898666) (xy 92.154 61.94821)
        (xy 92.154 62.896) (xy 92.174 62.896) (xy 92.174 63.204) (xy 92.154 63.204) (xy 92.154 63.224)
        (xy 91.846 63.224) (xy 91.846 63.204) (xy 91.826 63.204) (xy 91.826 62.896) (xy 91.846 62.896)
        (xy 91.846 61.94821) (xy 91.661727 61.898666) (xy 91.641614 61.90476) (xy 91.425075 61.996683) (xy 91.23063 62.129084)
        (xy 91.065751 62.296876) (xy 90.936775 62.49361) (xy 90.848658 62.711726) (xy 90.897414 62.895998) (xy 90.801364 62.895998)
        (xy 90.790467 62.785354) (xy 90.713272 62.530878) (xy 90.587915 62.296351) (xy 90.419213 62.090787) (xy 90.213649 61.922085)
        (xy 89.979122 61.796728) (xy 89.724646 61.719533) (xy 89.526321 61.7) (xy 89.393679 61.7) (xy 89.195354 61.719533)
        (xy 88.940878 61.796728) (xy 88.706351 61.922085) (xy 88.500787 62.090787) (xy 88.332085 62.296351) (xy 88.206728 62.530878)
        (xy 88.19 62.586022) (xy 88.173272 62.530878) (xy 88.047915 62.296351) (xy 87.879213 62.090787) (xy 87.673649 61.922085)
        (xy 87.439122 61.796728) (xy 87.184646 61.719533) (xy 86.986321 61.7) (xy 86.853679 61.7) (xy 86.655354 61.719533)
        (xy 86.400878 61.796728) (xy 86.166351 61.922085) (xy 85.960787 62.090787) (xy 85.792085 62.296351) (xy 85.666728 62.530878)
        (xy 85.589533 62.785354) (xy 85.563468 63.05) (xy 84.981746 63.05) (xy 84.875803 62.794232) (xy 84.525602 62.270119)
        (xy 84.079881 61.824398) (xy 83.555768 61.474197) (xy 83.298446 61.367611) (xy 138.829838 61.367611)
      )
    )
  )
)
